Labs/lab4-1/build/verilate/Testbench.vcd
$version Generated by VerilatedVcd $end
$timescale 10ps $end
 $scope module TOP $end
  $scope module Conv $end
   $var wire 32 =" WIDTH [31:0] $end
   $var wire 32 @" LEN [31:0] $end
  $upscope $end
  $scope module Testbench $end
   $var wire 1 :" clk $end
   $var wire 1 # rst $end
   $var wire 64 $ in_data [63:0] $end
   $scope module kernel $end
    $var wire 64 & data[0] [63:0] $end
    $var wire 64 ( data[1] [63:0] $end
    $var wire 64 * data[2] [63:0] $end
    $var wire 64 , data[3] [63:0] $end
   $upscope $end
   $var wire 1 . in_valid $end
   $var wire 1 ;! in_ready $end
   $var wire 128 <! result [127:0] $end
   $var wire 1 @! out_valid $end
   $var wire 1 ;" out_ready $end
   $var wire 32 / i [31:0] $end
   $var wire 32 0 j [31:0] $end
   $var wire 32 1 seed [31:0] $end
   $var wire 1 ~ error $end
   $scope module conv_unit $end
    $var wire 1 :" clk $end
    $var wire 1 # rst $end
    $var wire 64 $ in_data [63:0] $end
    $scope module kernel $end
     $var wire 64 & data[0] [63:0] $end
     $var wire 64 ( data[1] [63:0] $end
     $var wire 64 * data[2] [63:0] $end
     $var wire 64 , data[3] [63:0] $end
    $upscope $end
    $var wire 1 . in_valid $end
    $var wire 1 ;! in_ready $end
    $var wire 128 <! result [127:0] $end
    $var wire 1 @! out_valid $end
    $var wire 1 ;" out_ready $end
    $scope module data $end
     $var wire 64 A! data[0] [63:0] $end
     $var wire 64 C! data[1] [63:0] $end
     $var wire 64 E! data[2] [63:0] $end
     $var wire 64 G! data[3] [63:0] $end
    $upscope $end
    $var wire 1 I! ex_valid $end
    $var wire 1 J! ex_ready $end
    $scope module conv1 $end
     $var wire 1 :" clk $end
     $var wire 1 # rst $end
     $scope module kernel $end
      $var wire 64 & data[0] [63:0] $end
      $var wire 64 ( data[1] [63:0] $end
      $var wire 64 * data[2] [63:0] $end
      $var wire 64 , data[3] [63:0] $end
     $upscope $end
     $scope module data $end
      $var wire 64 A! data[0] [63:0] $end
      $var wire 64 C! data[1] [63:0] $end
      $var wire 64 E! data[2] [63:0] $end
      $var wire 64 G! data[3] [63:0] $end
     $upscope $end
     $var wire 1 I! in_valid $end
     $var wire 1 J! in_ready $end
     $var wire 128 <! result [127:0] $end
     $var wire 1 @! out_valid $end
     $var wire 1 ;" out_ready $end
     $var wire 32 <" VECTOR_WIDTH [31:0] $end
     $var wire 128 K! add_tmp[0] [127:0] $end
     $var wire 128 O! add_tmp[1] [127:0] $end
     $var wire 128 S! add_tmp[2] [127:0] $end
     $var wire 128 W! add_tmp[3] [127:0] $end
     $var wire 128 [! vector_stage1_data[0] [127:0] $end
     $var wire 128 _! vector_stage1_data[1] [127:0] $end
     $var wire 128 c! vector_stage1_data[2] [127:0] $end
     $var wire 128 g! vector_stage1_data[3] [127:0] $end
     $scope module vector_stage1[0] $end
      $var wire 128 k! data [127:0] $end
      $var wire 1 o! valid $end
     $upscope $end
     $scope module vector_stage1[1] $end
      $var wire 128 p! data [127:0] $end
      $var wire 1 t! valid $end
     $upscope $end
     $scope module vector_stage1[2] $end
      $var wire 128 u! data [127:0] $end
      $var wire 1 y! valid $end
     $upscope $end
     $scope module vector_stage1[3] $end
      $var wire 128 z! data [127:0] $end
      $var wire 1 ~! valid $end
     $upscope $end
     $scope module vector_stage2 $end
      $var wire 128 !" data [127:0] $end
      $var wire 1 %" valid $end
     $upscope $end
     $var wire 2 &" state_reg [1:0] $end
     $var wire 32 '" j [31:0] $end
     $scope module genblk1[0] $end
      $scope module mult1 $end
       $var wire 32 =" LEN [31:0] $end
       $var wire 1 :" clk $end
       $var wire 1 # rst $end
       $var wire 64 2 multiplicand [63:0] $end
       $var wire 64 (" multiplier [63:0] $end
       $var wire 1 I! start $end
       $var wire 128 : product [127:0] $end
       $var wire 1 > finish $end
       $var wire 32 <" PRODUCT_LEN [31:0] $end
       $var wire 64 ? multiplicand_reg [63:0] $end
       $var wire 129 A product_reg [128:0] $end
       $var wire 1 > finish_reg $end
       $var wire 32 >" CNT_LEN [31:0] $end
       $var wire 32 ?" CNT_NUM [31:0] $end
       $var wire 2 F fsm_state_reg [1:0] $end
       $var wire 8 G Count [7:0] $end
       $var wire 65 H high_product_temp [64:0] $end
      $upscope $end
     $upscope $end
     $scope module genblk1[1] $end
      $scope module mult1 $end
       $var wire 32 =" LEN [31:0] $end
       $var wire 1 :" clk $end
       $var wire 1 # rst $end
       $var wire 64 4 multiplicand [63:0] $end
       $var wire 64 *" multiplier [63:0] $end
       $var wire 1 I! start $end
       $var wire 128 K product [127:0] $end
       $var wire 1 O finish $end
       $var wire 32 <" PRODUCT_LEN [31:0] $end
       $var wire 64 P multiplicand_reg [63:0] $end
       $var wire 129 R product_reg [128:0] $end
       $var wire 1 O finish_reg $end
       $var wire 32 >" CNT_LEN [31:0] $end
       $var wire 32 ?" CNT_NUM [31:0] $end
       $var wire 2 W fsm_state_reg [1:0] $end
       $var wire 8 X Count [7:0] $end
       $var wire 65 Y high_product_temp [64:0] $end
      $upscope $end
     $upscope $end
     $scope module genblk1[2] $end
      $scope module mult1 $end
       $var wire 32 =" LEN [31:0] $end
       $var wire 1 :" clk $end
       $var wire 1 # rst $end
       $var wire 64 6 multiplicand [63:0] $end
       $var wire 64 ," multiplier [63:0] $end
       $var wire 1 I! start $end
       $var wire 128 \ product [127:0] $end
       $var wire 1 ` finish $end
       $var wire 32 <" PRODUCT_LEN [31:0] $end
       $var wire 64 a multiplicand_reg [63:0] $end
       $var wire 129 c product_reg [128:0] $end
       $var wire 1 ` finish_reg $end
       $var wire 32 >" CNT_LEN [31:0] $end
       $var wire 32 ?" CNT_NUM [31:0] $end
       $var wire 2 h fsm_state_reg [1:0] $end
       $var wire 8 i Count [7:0] $end
       $var wire 65 j high_product_temp [64:0] $end
      $upscope $end
     $upscope $end
     $scope module genblk1[3] $end
      $scope module mult1 $end
       $var wire 32 =" LEN [31:0] $end
       $var wire 1 :" clk $end
       $var wire 1 # rst $end
       $var wire 64 8 multiplicand [63:0] $end
       $var wire 64 ." multiplier [63:0] $end
       $var wire 1 I! start $end
       $var wire 128 m product [127:0] $end
       $var wire 1 q finish $end
       $var wire 32 <" PRODUCT_LEN [31:0] $end
       $var wire 64 r multiplicand_reg [63:0] $end
       $var wire 129 t product_reg [128:0] $end
       $var wire 1 q finish_reg $end
       $var wire 32 >" CNT_LEN [31:0] $end
       $var wire 32 ?" CNT_NUM [31:0] $end
       $var wire 2 y fsm_state_reg [1:0] $end
       $var wire 8 z Count [7:0] $end
       $var wire 65 { high_product_temp [64:0] $end
      $upscope $end
     $upscope $end
    $upscope $end
    $scope module shift1 $end
     $var wire 1 :" clk $end
     $var wire 1 # rst $end
     $var wire 64 $ in_data [63:0] $end
     $var wire 1 . in_valid $end
     $var wire 1 ;! in_ready $end
     $scope module data $end
      $var wire 64 A! data[0] [63:0] $end
      $var wire 64 C! data[1] [63:0] $end
      $var wire 64 E! data[2] [63:0] $end
      $var wire 64 G! data[3] [63:0] $end
     $upscope $end
     $var wire 1 I! out_valid $end
     $var wire 1 J! out_ready $end
     $var wire 1 0" state_reg $end
     $var wire 64 1" data_reg[0] [63:0] $end
     $var wire 64 3" data_reg[1] [63:0] $end
     $var wire 64 5" data_reg[2] [63:0] $end
     $var wire 64 7" data_reg[3] [63:0] $end
     $var wire 32 9" i [31:0] $end
    $upscope $end
   $upscope $end
   $scope module judge $end
    $var wire 1 :" clk $end
    $var wire 1 # rst $end
    $var wire 64 $ in_data [63:0] $end
    $scope module kernel $end
     $var wire 64 & data[0] [63:0] $end
     $var wire 64 ( data[1] [63:0] $end
     $var wire 64 * data[2] [63:0] $end
     $var wire 64 , data[3] [63:0] $end
    $upscope $end
    $var wire 1 . in_valid $end
    $var wire 1 ;! in_ready $end
    $var wire 128 <! result [127:0] $end
    $var wire 1 @! out_valid $end
    $var wire 1 ;" out_ready $end
    $var wire 1 ~ error $end
    $var wire 1 !! request $end
    $var wire 128 "! mid[0] [127:0] $end
    $var wire 128 &! mid[1] [127:0] $end
    $var wire 128 *! mid[2] [127:0] $end
    $var wire 128 .! mid[3] [127:0] $end
    $var wire 128 2! sum [127:0] $end
    $var wire 128 6! simulate_result [127:0] $end
    $var wire 32 :! i [31:0] $end
   $upscope $end
  $upscope $end
 $upscope $end
$enddefinitions $end


#0
0#
b0000000000000000000000000000000000000000000000000000000000000000 $
b0000000000000000000000000000000000000000000000000000000000000000 &
b0000000000000000000000000000000000000000000000000000000000000000 (
b0000000000000000000000000000000000000000000000000000000000000000 *
b0000000000000000000000000000000000000000000000000000000000000000 ,
0.
b00000000000000000000000000000000 /
b00000000000000000000000000000000 0
b00000000000111010100101101000010 1
b0000000000000000000000000000000000000000000000000000000000000000 2
b0000000000000000000000000000000000000000000000000000000000000000 4
b0000000000000000000000000000000000000000000000000000000000000000 6
b0000000000000000000000000000000000000000000000000000000000000000 8
b00000000000000000000000000000000000000000000000000000000000000000000000000000000000000000000000000000000000000000000000000000000 :
0>
b0000000000000000000000000000000000000000000000000000000000000000 ?
b000000000000000000000000000000000000000000000000000000000000000000000000000000000000000000000000000000000000000000000000000000000 A
b00 F
b00000000 G
b00000000000000000000000000000000000000000000000000000000000000000 H
b00000000000000000000000000000000000000000000000000000000000000000000000000000000000000000000000000000000000000000000000000000000 K
0O
b0000000000000000000000000000000000000000000000000000000000000000 P
b000000000000000000000000000000000000000000000000000000000000000000000000000000000000000000000000000000000000000000000000000000000 R
b00 W
b00000000 X
b00000000000000000000000000000000000000000000000000000000000000000 Y
b00000000000000000000000000000000000000000000000000000000000000000000000000000000000000000000000000000000000000000000000000000000 \
0`
b0000000000000000000000000000000000000000000000000000000000000000 a
b000000000000000000000000000000000000000000000000000000000000000000000000000000000000000000000000000000000000000000000000000000000 c
b00 h
b00000000 i
b00000000000000000000000000000000000000000000000000000000000000000 j
b00000000000000000000000000000000000000000000000000000000000000000000000000000000000000000000000000000000000000000000000000000000 m
0q
b0000000000000000000000000000000000000000000000000000000000000000 r
b000000000000000000000000000000000000000000000000000000000000000000000000000000000000000000000000000000000000000000000000000000000 t
b00 y
b00000000 z
b00000000000000000000000000000000000000000000000000000000000000000 {
0~
0!!
b00000000000000000000000000000000000000000000000000000000000000000000000000000000000000000000000000000000000000000000000000000000 "!
b00000000000000000000000000000000000000000000000000000000000000000000000000000000000000000000000000000000000000000000000000000000 &!
b00000000000000000000000000000000000000000000000000000000000000000000000000000000000000000000000000000000000000000000000000000000 *!
b00000000000000000000000000000000000000000000000000000000000000000000000000000000000000000000000000000000000000000000000000000000 .!
b00000000000000000000000000000000000000000000000000000000000000000000000000000000000000000000000000000000000000000000000000000000 2!
b00000000000000000000000000000000000000000000000000000000000000000000000000000000000000000000000000000000000000000000000000000000 6!
b00000000000000000000000000000000 :!
0;!
b00000000000000000000000000000000000000000000000000000000000000000000000000000000000000000000000000000000000000000000000000000000 <!
0@!
b0000000000000000000000000000000000000000000000000000000000000000 A!
b0000000000000000000000000000000000000000000000000000000000000000 C!
b0000000000000000000000000000000000000000000000000000000000000000 E!
b0000000000000000000000000000000000000000000000000000000000000000 G!
0I!
0J!
b00000000000000000000000000000000000000000000000000000000000000000000000000000000000000000000000000000000000000000000000000000000 K!
b00000000000000000000000000000000000000000000000000000000000000000000000000000000000000000000000000000000000000000000000000000000 O!
b00000000000000000000000000000000000000000000000000000000000000000000000000000000000000000000000000000000000000000000000000000000 S!
b00000000000000000000000000000000000000000000000000000000000000000000000000000000000000000000000000000000000000000000000000000000 W!
b00000000000000000000000000000000000000000000000000000000000000000000000000000000000000000000000000000000000000000000000000000000 [!
b00000000000000000000000000000000000000000000000000000000000000000000000000000000000000000000000000000000000000000000000000000000 _!
b00000000000000000000000000000000000000000000000000000000000000000000000000000000000000000000000000000000000000000000000000000000 c!
b00000000000000000000000000000000000000000000000000000000000000000000000000000000000000000000000000000000000000000000000000000000 g!
b00000000000000000000000000000000000000000000000000000000000000000000000000000000000000000000000000000000000000000000000000000000 k!
0o!
b00000000000000000000000000000000000000000000000000000000000000000000000000000000000000000000000000000000000000000000000000000000 p!
0t!
b00000000000000000000000000000000000000000000000000000000000000000000000000000000000000000000000000000000000000000000000000000000 u!
0y!
b00000000000000000000000000000000000000000000000000000000000000000000000000000000000000000000000000000000000000000000000000000000 z!
0~!
b00000000000000000000000000000000000000000000000000000000000000000000000000000000000000000000000000000000000000000000000000000000 !"
0%"
b00 &"
b00000000000000000000000000000000 '"
b0000000000000000000000000000000000000000000000000000000000000000 ("
b0000000000000000000000000000000000000000000000000000000000000000 *"
b0000000000000000000000000000000000000000000000000000000000000000 ,"
b0000000000000000000000000000000000000000000000000000000000000000 ."
00"
b0000000000000000000000000000000000000000000000000000000000000000 1"
b0000000000000000000000000000000000000000000000000000000000000000 3"
b0000000000000000000000000000000000000000000000000000000000000000 5"
b0000000000000000000000000000000000000000000000000000000000000000 7"
b00000000000000000000000000000000 9"
0:"
1;"
b00000000000000000000000010000000 <"
b00000000000000000000000001000000 ="
b00000000000000000000000000000110 >"
b00000000000000000000000000111111 ?"
b00000000000000000000000000000100 @"
#500
b00000000000000000000000000000100 9"
1:"
#1000
0:"
#1500
1:"
#2000
1#
b0000000000001110101001011010000100000000000111010100101101000010 $
b1010000100000000000011101010010101000010000000000001110101001011 &
b1000010000000000001110101001011000001000000000000111010100101101 (
b0001000000000000111010100101101000100000000000011101010010110100 *
b0100000000000011101010010110100010000000000001110101001011010000 ,
1.
b00000000000000000000000000000100 0
b01110101001011010000100000000000 1
b1010000100000000000011101010010101000010000000000001110101001011 2
b1000010000000000001110101001011000001000000000000111010100101101 4
b0001000000000000111010100101101000100000000000011101010010110100 6
b0100000000000011101010010110100010000000000001110101001011010000 8
0:"
#2500
1;!
1J!
10"
b0000000000001110101001011010000100000000000111010100101101000010 7"
b00000000000000000000000000000011 9"
1:"
#3000
0:"
#3500
1!!
0;!
b0000000000001110101001011010000100000000000111010100101101000010 G!
1I!
b0000000000001110101001011010000100000000000111010100101101000010 ."
00"
b00000000000000000000000000000100 9"
1:"
#4000
0.
0:"
#4500
b1010000100000000000011101010010101000010000000000001110101001011 ?
b01 F
b1000010000000000001110101001011000001000000000000111010100101101 P
b01 W
b0001000000000000111010100101101000100000000000011101010010110100 a
b01 h
b00000000000000000000000000000000000000000000000000000000000000000000000000001110101001011010000100000000000111010100101101000010 m
b0100000000000011101010010110100010000000000001110101001011010000 r
b000000000000000000000000000000000000000000000000000000000000000000000000000001110101001011010000100000000000111010100101101000010 t
b01 y
0!!
b00000000000000111010100110011101111000100011110000111000110111111000100011000100111100000001011110001000101101100100100110100000 .!
b00000000000000111010100110011101111000100011110000111000110111111000100011000100111100000001011110001000101101100100100110100000 2!
b00000000000000000000000000000100 :!
1;!
0I!
b00000000000000000000000000000000000000000000000000000000000000000000000000001110101001011010000100000000000111010100101101000010 g!
b01 &"
1:"
#5000
0:"
#5500
b00000001 G
b00000001 X
b00000001 i
b00000000000000000000000000000000000000000000000000000000000000000000000000000111010100101101000010000000000011101010010110100001 m
b000000000000000000000000000000000000000000000000000000000000000000000000000000111010100101101000010000000000011101010010110100001 t
b00000001 z
0J!
b00000000000000000000000000000000000000000000000000000000000000000000000000000111010100101101000010000000000011101010010110100001 g!
1:"
#6000
0:"
#6500
b00000010 G
b00000010 X
b00000010 i
b00100000000000011101010010110100010000000000001110101001011010000000000000000011101010010110100001000000000001110101001011010000 m
b000100000000000011101010010110100010000000000001110101001011010000000000000000011101010010110100001000000000001110101001011010000 t
b00000010 z
b00100000000000011101010010110100010000000000001110101001011010000 {
b00100000000000011101010010110100010000000000001110101001011010000000000000000011101010010110100001000000000001110101001011010000 g!
1:"
#7000
0:"
#7500
b00000011 G
b00000011 X
b00000011 i
b00010000000000001110101001011010001000000000000111010100101101000000000000000001110101001011010000100000000000111010100101101000 m
b000010000000000001110101001011010001000000000000111010100101101000000000000000001110101001011010000100000000000111010100101101000 t
b00000011 z
b00010000000000001110101001011010001000000000000111010100101101000 {
b00010000000000001110101001011010001000000000000111010100101101000000000000000001110101001011010000100000000000111010100101101000 g!
1:"
#8000
0:"
#8500
b00000100 G
b00000100 X
b00000100 i
b00001000000000000111010100101101000100000000000011101010010110100000000000000000111010100101101000010000000000011101010010110100 m
b000001000000000000111010100101101000100000000000011101010010110100000000000000000111010100101101000010000000000011101010010110100 t
b00000100 z
b00001000000000000111010100101101000100000000000011101010010110100 {
b00001000000000000111010100101101000100000000000011101010010110100000000000000000111010100101101000010000000000011101010010110100 g!
1:"
#9000
0:"
#9500
b00000101 G
b00000101 X
b00000101 i
b00000100000000000011101010010110100010000000000001110101001011010000000000000000011101010010110100001000000000001110101001011010 m
b000000100000000000011101010010110100010000000000001110101001011010000000000000000011101010010110100001000000000001110101001011010 t
b00000101 z
b00000100000000000011101010010110100010000000000001110101001011010 {
b00000100000000000011101010010110100010000000000001110101001011010000000000000000011101010010110100001000000000001110101001011010 g!
1:"
#10000
0:"
#10500
b00000110 G
b00000110 X
b00000110 i
b00000010000000000001110101001011010001000000000000111010100101101000000000000000001110101001011010000100000000000111010100101101 m
b000000010000000000001110101001011010001000000000000111010100101101000000000000000001110101001011010000100000000000111010100101101 t
b00000110 z
b00000010000000000001110101001011010001000000000000111010100101101 {
b00000010000000000001110101001011010001000000000000111010100101101000000000000000001110101001011010000100000000000111010100101101 g!
1:"
#11000
0:"
#11500
b00000111 G
b00000111 X
b00000111 i
b00100001000000011110001101011001111000100000001111000110101100110100000000000000000111010100101101000010000000000011101010010110 m
b000100001000000011110001101011001111000100000001111000110101100110100000000000000000111010100101101000010000000000011101010010110 t
b00000111 z
b00100001000000011110001101011001111000100000001111000110101100110 {
b00100001000000011110001101011001111000100000001111000110101100110100000000000000000111010100101101000010000000000011101010010110 g!
1:"
#12000
0:"
#12500
b00001000 G
b00001000 X
b00001000 i
b00010000100000001111000110101100111100010000000111100011010110011010000000000000000011101010010110100001000000000001110101001011 m
b000010000100000001111000110101100111100010000000111100011010110011010000000000000000011101010010110100001000000000001110101001011 t
b00001000 z
b00010000100000001111000110101100111100010000000111100011010110011 {
b00010000100000001111000110101100111100010000000111100011010110011010000000000000000011101010010110100001000000000001110101001011 g!
1:"
#13000
0:"
#13500
b00001001 G
b00001001 X
b00001001 i
b00101000010000100100110110001010101110001000010010011011000101001101000000000000000001110101001011010000100000000000111010100101 m
b000101000010000100100110110001010101110001000010010011011000101001101000000000000000001110101001011010000100000000000111010100101 t
b00001001 z
b00101000010000100100110110001010101110001000010010011011000101001 {
b00101000010000100100110110001010101110001000010010011011000101001101000000000000000001110101001011010000100000000000111010100101 g!
1:"
#14000
0:"
#14500
b00001010 G
b00001010 X
b00001010 i
b00110100001000101111101101111001100111000100010111110110111100100110100000000000000000111010100101101000010000000000011101010010 m
b000110100001000101111101101111001100111000100010111110110111100100110100000000000000000111010100101101000010000000000011101010010 t
b00001010 z
b00110100001000101111101101111001100111000100010111110110111100100 {
b00110100001000101111101101111001100111000100010111110110111100100110100000000000000000111010100101101000010000000000011101010010 g!
1:"
#15000
0:"
#15500
b00001011 G
b00001011 X
b00001011 i
b00011010000100010111110110111100110011100010001011111011011110010011010000000000000000011101010010110100001000000000001110101001 m
b000011010000100010111110110111100110011100010001011111011011110010011010000000000000000011101010010110100001000000000001110101001 t
b00001011 z
b00011010000100010111110110111100110011100010001011111011011110010 {
b00011010000100010111110110111100110011100010001011111011011110010011010000000000000000011101010010110100001000000000001110101001 g!
1:"
#16000
0:"
#16500
b00001100 G
b00001100 X
b00001100 i
b00101101000010101001001110010010101001110001010100100111001001001001101000000000000000001110101001011010000100000000000111010100 m
b000101101000010101001001110010010101001110001010100100111001001001001101000000000000000001110101001011010000100000000000111010100 t
b00001100 z
b00101101000010101001001110010010101001110001010100100111001001001 {
b00101101000010101001001110010010101001110001010100100111001001001001101000000000000000001110101001011010000100000000000111010100 g!
1:"
#17000
0:"
#17500
b00001101 G
b00001101 X
b00001101 i
b00010110100001010100100111001001010100111000101010010011100100100100110100000000000000000111010100101101000010000000000011101010 m
b000010110100001010100100111001001010100111000101010010011100100100100110100000000000000000111010100101101000010000000000011101010 t
b00001101 z
b00010110100001010100100111001001010100111000101010010011100100100 {
b00010110100001010100100111001001010100111000101010010011100100100100110100000000000000000111010100101101000010000000000011101010 g!
1:"
#18000
0:"
#18500
b00001110 G
b00001110 X
b00001110 i
b00001011010000101010010011100100101010011100010101001001110010010010011010000000000000000011101010010110100001000000000001110101 m
b000001011010000101010010011100100101010011100010101001001110010010010011010000000000000000011101010010110100001000000000001110101 t
b00001110 z
b00001011010000101010010011100100101010011100010101001001110010010 {
b00001011010000101010010011100100101010011100010101001001110010010010011010000000000000000011101010010110100001000000000001110101 g!
1:"
#19000
0:"
#19500
b00001111 G
b00001111 X
b00001111 i
b00100101101000110010011100100110100101001110011001001110010011001001001101000000000000000001110101001011010000100000000000111010 m
b000100101101000110010011100100110100101001110011001001110010011001001001101000000000000000001110101001011010000100000000000111010 t
b00001111 z
b00100101101000110010011100100110100101001110011001001110010011001 {
b00100101101000110010011100100110100101001110011001001110010011001001001101000000000000000001110101001011010000100000000000111010 g!
1:"
#20000
0:"
#20500
b00010000 G
b00010000 X
b00010000 i
b00010010110100011001001110010011010010100111001100100111001001100100100110100000000000000000111010100101101000010000000000011101 m
b000010010110100011001001110010011010010100111001100100111001001100100100110100000000000000000111010100101101000010000000000011101 t
b00010000 z
b00010010110100011001001110010011010010100111001100100111001001100 {
b00010010110100011001001110010011010010100111001100100111001001100100100110100000000000000000111010100101101000010000000000011101 g!
1:"
#21000
0:"
#21500
b00010001 G
b00010001 X
b00010001 i
b00101001011010101001111001111101111001010011110100111100111110110010010011010000000000000000011101010010110100001000000000001110 m
b000101001011010101001111001111101111001010011110100111100111110110010010011010000000000000000011101010010110100001000000000001110 t
b00010001 z
b00101001011010101001111001111101111001010011110100111100111110110 {
b00101001011010101001111001111101111001010011110100111100111110110010010011010000000000000000011101010010110100001000000000001110 g!
1:"
#22000
0:"
#22500
b00010010 G
b00010010 X
b00010010 i
b00010100101101010100111100111110111100101001111010011110011111011001001001101000000000000000001110101001011010000100000000000111 m
b000010100101101010100111100111110111100101001111010011110011111011001001001101000000000000000001110101001011010000100000000000111 t
b00010010 z
b00010100101101010100111100111110111100101001111010011110011111011 {
b00010100101101010100111100111110111100101001111010011110011111011001001001101000000000000000001110101001011010000100000000000111 g!
1:"
#23000
0:"
#23500
b00010011 G
b00010011 X
b00010011 i
b00101010010111000111110001010011101110010101001011111000101001101100100100110100000000000000000111010100101101000010000000000011 m
b000101010010111000111110001010011101110010101001011111000101001101100100100110100000000000000000111010100101101000010000000000011 t
b00010011 z
b00101010010111000111110001010011101110010101001011111000101001101 {
b00101010010111000111110001010011101110010101001011111000101001101100100100110100000000000000000111010100101101000010000000000011 g!
1:"
#24000
0:"
#24500
b00010100 G
b00010100 X
b00010100 i
b00110101001100000001001011011110000111001010110100100101101110110110010010011010000000000000000011101010010110100001000000000001 m
b000110101001100000001001011011110000111001010110100100101101110110110010010011010000000000000000011101010010110100001000000000001 t
b00010100 z
b00110101001100000001001011011110000111001010110100100101101110110 {
b00110101001100000001001011011110000111001010110100100101101110110110010010011010000000000000000011101010010110100001000000000001 g!
1:"
#25000
0:"
#25500
b00010101 G
b00010101 X
b00010101 i
b00111010100110011101111000100011010011100101101000111100010001011011001001001101000000000000000001110101001011010000100000000000 m
b000111010100110011101111000100011010011100101101000111100010001011011001001001101000000000000000001110101001011010000100000000000 t
b00010101 z
b00111010100110011101111000100011010011100101101000111100010001011 {
b00111010100110011101111000100011010011100101101000111100010001011011001001001101000000000000000001110101001011010000100000000000 g!
1:"
#26000
0:"
#26500
b00010110 G
b00010110 X
b00010110 i
b00011101010011001110111100010001101001110010110100011110001000101101100100100110100000000000000000111010100101101000010000000000 m
b000011101010011001110111100010001101001110010110100011110001000101101100100100110100000000000000000111010100101101000010000000000 t
b00010110 z
b00011101010011001110111100010001101001110010110100011110001000101 {
b00011101010011001110111100010001101001110010110100011110001000101101100100100110100000000000000000111010100101101000010000000000 g!
1:"
#27000
0:"
#27500
b00010111 G
b00010111 X
b00010111 i
b00001110101001100111011110001000110100111001011010001111000100010110110010010011010000000000000000011101010010110100001000000000 m
b000001110101001100111011110001000110100111001011010001111000100010110110010010011010000000000000000011101010010110100001000000000 t
b00010111 z
b00001110101001100111011110001000110100111001011010001111000100010 {
b00001110101001100111011110001000110100111001011010001111000100010110110010010011010000000000000000011101010010110100001000000000 g!
1:"
#28000
0:"
#28500
b00011000 G
b00011000 X
b00011000 i
b00000111010100110011101111000100011010011100101101000111100010001011011001001001101000000000000000001110101001011010000100000000 m
b000000111010100110011101111000100011010011100101101000111100010001011011001001001101000000000000000001110101001011010000100000000 t
b00011000 z
b00000111010100110011101111000100011010011100101101000111100010001 {
b00000111010100110011101111000100011010011100101101000111100010001011011001001001101000000000000000001110101001011010000100000000 g!
1:"
#29000
0:"
#29500
b00011001 G
b00011001 X
b00011001 i
b00000011101010011001110111100010001101001110010110100011110001000101101100100100110100000000000000000111010100101101000010000000 m
b000000011101010011001110111100010001101001110010110100011110001000101101100100100110100000000000000000111010100101101000010000000 t
b00011001 z
b00000011101010011001110111100010001101001110010110100011110001000 {
b00000011101010011001110111100010001101001110010110100011110001000101101100100100110100000000000000000111010100101101000010000000 g!
1:"
#30000
0:"
#30500
b00011010 G
b00011010 X
b00011010 i
b00000001110101001100111011110001000110100111001011010001111000100010110110010010011010000000000000000011101010010110100001000000 m
b000000001110101001100111011110001000110100111001011010001111000100010110110010010011010000000000000000011101010010110100001000000 t
b00011010 z
b00000001110101001100111011110001000110100111001011010001111000100 {
b00000001110101001100111011110001000110100111001011010001111000100010110110010010011010000000000000000011101010010110100001000000 g!
1:"
#31000
0:"
#31500
b00011011 G
b00011011 X
b00011011 i
b00000000111010100110011101111000100011010011100101101000111100010001011011001001001101000000000000000001110101001011010000100000 m
b000000000111010100110011101111000100011010011100101101000111100010001011011001001001101000000000000000001110101001011010000100000 t
b00011011 z
b00000000111010100110011101111000100011010011100101101000111100010 {
b00000000111010100110011101111000100011010011100101101000111100010001011011001001001101000000000000000001110101001011010000100000 g!
1:"
#32000
0:"
#32500
b00011100 G
b00011100 X
b00011100 i
b00000000011101010011001110111100010001101001110010110100011110001000101101100100100110100000000000000000111010100101101000010000 m
b000000000011101010011001110111100010001101001110010110100011110001000101101100100100110100000000000000000111010100101101000010000 t
b00011100 z
b00000000011101010011001110111100010001101001110010110100011110001 {
b00000000011101010011001110111100010001101001110010110100011110001000101101100100100110100000000000000000111010100101101000010000 g!
1:"
#33000
0:"
#33500
b00011101 G
b00011101 X
b00011101 i
b00000000001110101001100111011110001000110100111001011010001111000100010110110010010011010000000000000000011101010010110100001000 m
b000000000001110101001100111011110001000110100111001011010001111000100010110110010010011010000000000000000011101010010110100001000 t
b00011101 z
b00000000001110101001100111011110001000110100111001011010001111000 {
b00000000001110101001100111011110001000110100111001011010001111000100010110110010010011010000000000000000011101010010110100001000 g!
1:"
#34000
0:"
#34500
b00011110 G
b00011110 X
b00011110 i
b00000000000111010100110011101111000100011010011100101101000111100010001011011001001001101000000000000000001110101001011010000100 m
b000000000000111010100110011101111000100011010011100101101000111100010001011011001001001101000000000000000001110101001011010000100 t
b00011110 z
b00000000000111010100110011101111000100011010011100101101000111100 {
b00000000000111010100110011101111000100011010011100101101000111100010001011011001001001101000000000000000001110101001011010000100 g!
1:"
#35000
0:"
#35500
b00011111 G
b00011111 X
b00011111 i
b00000000000011101010011001110111100010001101001110010110100011110001000101101100100100110100000000000000000111010100101101000010 m
b000000000000011101010011001110111100010001101001110010110100011110001000101101100100100110100000000000000000111010100101101000010 t
b00011111 z
b00000000000011101010011001110111100010001101001110010110100011110 {
b00000000000011101010011001110111100010001101001110010110100011110001000101101100100100110100000000000000000111010100101101000010 g!
1:"
#36000
0:"
#36500
b00100000 G
b00100000 X
b00100000 i
b00000000000001110101001100111011110001000110100111001011010001111000100010110110010010011010000000000000000011101010010110100001 m
b000000000000001110101001100111011110001000110100111001011010001111000100010110110010010011010000000000000000011101010010110100001 t
b00100000 z
b00000000000001110101001100111011110001000110100111001011010001111 {
b00000000000001110101001100111011110001000110100111001011010001111000100010110110010010011010000000000000000011101010010110100001 g!
1:"
#37000
0:"
#37500
b00100001 G
b00100001 X
b00100001 i
b00100000000001010111111001010010001000100011100010001111000010111100010001011011001001001101000000000000000001110101001011010000 m
b000100000000001010111111001010010001000100011100010001111000010111100010001011011001001001101000000000000000001110101001011010000 t
b00100001 z
b00100000000001010111111001010010001000100011100010001111000010111 {
b00100000000001010111111001010010001000100011100010001111000010111100010001011011001001001101000000000000000001110101001011010000 g!
1:"
#38000
0:"
#38500
b00100010 G
b00100010 X
b00100010 i
b00010000000000101011111100101001000100010001110001000111100001011110001000101101100100100110100000000000000000111010100101101000 m
b000010000000000101011111100101001000100010001110001000111100001011110001000101101100100100110100000000000000000111010100101101000 t
b00100010 z
b00010000000000101011111100101001000100010001110001000111100001011 {
b00010000000000101011111100101001000100010001110001000111100001011110001000101101100100100110100000000000000000111010100101101000 g!
1:"
#39000
0:"
#39500
b00100011 G
b00100011 X
b00100011 i
b00001000000000010101111110010100100010001000111000100011110000101111000100010110110010010011010000000000000000011101010010110100 m
b000001000000000010101111110010100100010001000111000100011110000101111000100010110110010010011010000000000000000011101010010110100 t
b00100011 z
b00001000000000010101111110010100100010001000111000100011110000101 {
b00001000000000010101111110010100100010001000111000100011110000101111000100010110110010010011010000000000000000011101010010110100 g!
1:"
#40000
0:"
