Labs/lab3-1/build/verilate/Testbench.vcd
$version Generated by VerilatedVcd $end
$timescale 10ps $end
 $scope module TOP $end
  $scope module Testbench $end
   $var wire 1 # a $end
   $var wire 1 $ b $end
   $var wire 1 ) clk $end
   $var wire 1 % rstn $end
   $var wire 2 * state [1:0] $end
   $var wire 1 + error $end
   $scope module fsm $end
    $var wire 1 % rstn $end
    $var wire 1 ) clk $end
    $var wire 1 # a $end
    $var wire 1 $ b $end
    $var wire 2 * state [1:0] $end
    $var wire 2 * currentState [1:0] $end
   $upscope $end
   $scope module judge $end
    $var wire 1 # a $end
    $var wire 1 $ b $end
    $var wire 1 % rstn $end
    $var wire 1 ) clk $end
    $var wire 2 * state [1:0] $end
    $var wire 1 + error $end
    $var wire 32 & param_a [31:0] $end
    $var wire 32 ' param_b [31:0] $end
    $var wire 32 ( param_rstn [31:0] $end
    $var wire 32 , param_state [31:0] $end
   $upscope $end
  $upscope $end
 $upscope $end
$enddefinitions $end


#0
0#
0$
0%
b00000000000000000000000000000000 &
b00000000000000000000000000000000 '
b00000000000000000000000000000000 (
0)
b00 *
0+
b00000000000000000000000000000000 ,
#500
1)
#1000
0)
#1500
1)
#2000
0)
#2500
1)
#3000
0)
#3500
1)
#4000
0)
#4500
1#
1%
b00000000000000000000000000000001 &
b00000000000000000000000000000001 (
1)
b01 *
b00000000000000000000000000000001 ,
#5000
0)
#5500
0#
1$
b00000000000000000000000000000000 &
b00000000000000000000000000000001 '
1)
b00 *
b00000000000000000000000000000000 ,
#6000
0)
#6500
1#
0$
b00000000000000000000000000000001 &
b00000000000000000000000000000000 '
1)
b01 *
b00000000000000000000000000000001 ,
#7000
0)
#7500
1)
b10 *
b00000000000000000000000000000010 ,
#8000
0)
#8500
0#
1$
b00000000000000000000000000000000 &
b00000000000000000000000000000001 '
1)
b00 *
b00000000000000000000000000000000 ,
#9000
0)
#9500
1#
0$
b00000000000000000000000000000001 &
b00000000000000000000000000000000 '
1)
b01 *
b00000000000000000000000000000001 ,
#10000
0)
#10500
1)
b10 *
b00000000000000000000000000000010 ,
#11000
0)
#11500
1)
b11 *
b00000000000000000000000000000011 ,
#12000
0)
#12500
0#
1$
b00000000000000000000000000000000 &
b00000000000000000000000000000001 '
1)
#13000
0)
#13500
0%
b00000000000000000000000000000000 (
1)
b00 *
b00000000000000000000000000000000 ,
#14000
0)
#14500
1)
#15000
0)
#15500
1%
b00000000000000000000000000000001 (
1)
#16000
0)
#16500
1#
0$
b00000000000000000000000000000001 &
b00000000000000000000000000000000 '
1)
b01 *
b00000000000000000000000000000001 ,
#17000
0)
#17500
1)
b10 *
b00000000000000000000000000000010 ,
#18000
0)
#18500
1)
b11 *
b00000000000000000000000000000011 ,
#19000
0)
#19500
0#
1$
b00000000000000000000000000000000 &
b00000000000000000000000000000001 '
1)
