Labs/lab2-1/build/verilate/Testbench.vcd
$version Generated by VerilatedVcd $end
$timescale 10ps $end
 $scope module TOP $end
  $scope module Testbench $end
   $var wire 32 R! LENGTH [31:0] $end
   $var wire 32 # a [31:0] $end
   $var wire 32 $ b [31:0] $end
   $var wire 1 % do_sub $end
   $var wire 32 J s [31:0] $end
   $var wire 1 K c $end
   $var wire 32 S! i [31:0] $end
   $var wire 1 Q! clk $end
   $var wire 1 L error $end
   $var wire 1 T! temp1 $end
   $var wire 1 U! temp2 $end
   $scope module add_sub $end
    $var wire 32 R! LENGTH [31:0] $end
    $var wire 32 # a [31:0] $end
    $var wire 32 $ b [31:0] $end
    $var wire 1 % do_sub $end
    $var wire 32 J s [31:0] $end
    $var wire 1 K c $end
    $var wire 32 & temp [31:0] $end
    $scope module adders1 $end
     $var wire 32 R! LENGTH [31:0] $end
     $var wire 32 # a [31:0] $end
     $var wire 32 o b [31:0] $end
     $var wire 1 % c_in $end
     $var wire 32 J s [31:0] $end
     $var wire 1 K c_out $end
     $var wire 33 M carry [32:0] $end
     $scope module genblk1[0] $end
      $scope module adder0 $end
       $var wire 1 ' a $end
       $var wire 1 p b $end
       $var wire 1 % c_in $end
       $var wire 1 O s $end
       $var wire 1 q c_out $end
      $upscope $end
     $upscope $end
     $scope module genblk1[10] $end
      $scope module adder0 $end
       $var wire 1 ( a $end
       $var wire 1 r b $end
       $var wire 1 s c_in $end
       $var wire 1 P s $end
       $var wire 1 t c_out $end
      $upscope $end
     $upscope $end
     $scope module genblk1[11] $end
      $scope module adder0 $end
       $var wire 1 ) a $end
       $var wire 1 u b $end
       $var wire 1 t c_in $end
       $var wire 1 Q s $end
       $var wire 1 v c_out $end
      $upscope $end
     $upscope $end
     $scope module genblk1[12] $end
      $scope module adder0 $end
       $var wire 1 * a $end
       $var wire 1 w b $end
       $var wire 1 v c_in $end
       $var wire 1 R s $end
       $var wire 1 x c_out $end
      $upscope $end
     $upscope $end
     $scope module genblk1[13] $end
      $scope module adder0 $end
       $var wire 1 + a $end
       $var wire 1 y b $end
       $var wire 1 x c_in $end
       $var wire 1 S s $end
       $var wire 1 z c_out $end
      $upscope $end
     $upscope $end
     $scope module genblk1[14] $end
      $scope module adder0 $end
       $var wire 1 , a $end
       $var wire 1 { b $end
       $var wire 1 z c_in $end
       $var wire 1 T s $end
       $var wire 1 | c_out $end
      $upscope $end
     $upscope $end
     $scope module genblk1[15] $end
      $scope module adder0 $end
       $var wire 1 - a $end
       $var wire 1 } b $end
       $var wire 1 | c_in $end
       $var wire 1 U s $end
       $var wire 1 ~ c_out $end
      $upscope $end
     $upscope $end
     $scope module genblk1[16] $end
      $scope module adder0 $end
       $var wire 1 . a $end
       $var wire 1 !! b $end
       $var wire 1 ~ c_in $end
       $var wire 1 V s $end
       $var wire 1 "! c_out $end
      $upscope $end
     $upscope $end
     $scope module genblk1[17] $end
      $scope module adder0 $end
       $var wire 1 / a $end
       $var wire 1 #! b $end
       $var wire 1 "! c_in $end
       $var wire 1 W s $end
       $var wire 1 $! c_out $end
      $upscope $end
     $upscope $end
     $scope module genblk1[18] $end
      $scope module adder0 $end
       $var wire 1 0 a $end
       $var wire 1 %! b $end
       $var wire 1 $! c_in $end
       $var wire 1 X s $end
       $var wire 1 &! c_out $end
      $upscope $end
     $upscope $end
     $scope module genblk1[19] $end
      $scope module adder0 $end
       $var wire 1 1 a $end
       $var wire 1 '! b $end
       $var wire 1 &! c_in $end
       $var wire 1 Y s $end
       $var wire 1 (! c_out $end
      $upscope $end
     $upscope $end
     $scope module genblk1[1] $end
      $scope module adder0 $end
       $var wire 1 2 a $end
       $var wire 1 )! b $end
       $var wire 1 q c_in $end
       $var wire 1 Z s $end
       $var wire 1 *! c_out $end
      $upscope $end
     $upscope $end
     $scope module genblk1[20] $end
      $scope module adder0 $end
       $var wire 1 3 a $end
       $var wire 1 +! b $end
       $var wire 1 (! c_in $end
       $var wire 1 [ s $end
       $var wire 1 ,! c_out $end
      $upscope $end
     $upscope $end
     $scope module genblk1[21] $end
      $scope module adder0 $end
       $var wire 1 4 a $end
       $var wire 1 -! b $end
       $var wire 1 ,! c_in $end
       $var wire 1 \ s $end
       $var wire 1 .! c_out $end
      $upscope $end
     $upscope $end
     $scope module genblk1[22] $end
      $scope module adder0 $end
       $var wire 1 5 a $end
       $var wire 1 /! b $end
       $var wire 1 .! c_in $end
       $var wire 1 ] s $end
       $var wire 1 0! c_out $end
      $upscope $end
     $upscope $end
     $scope module genblk1[23] $end
      $scope module adder0 $end
       $var wire 1 6 a $end
       $var wire 1 1! b $end
       $var wire 1 0! c_in $end
       $var wire 1 ^ s $end
       $var wire 1 2! c_out $end
      $upscope $end
     $upscope $end
     $scope module genblk1[24] $end
      $scope module adder0 $end
       $var wire 1 7 a $end
       $var wire 1 3! b $end
       $var wire 1 2! c_in $end
       $var wire 1 _ s $end
       $var wire 1 4! c_out $end
      $upscope $end
     $upscope $end
     $scope module genblk1[25] $end
      $scope module adder0 $end
       $var wire 1 8 a $end
       $var wire 1 5! b $end
       $var wire 1 4! c_in $end
       $var wire 1 ` s $end
       $var wire 1 6! c_out $end
      $upscope $end
     $upscope $end
     $scope module genblk1[26] $end
      $scope module adder0 $end
       $var wire 1 9 a $end
       $var wire 1 7! b $end
       $var wire 1 6! c_in $end
       $var wire 1 a s $end
       $var wire 1 8! c_out $end
      $upscope $end
     $upscope $end
     $scope module genblk1[27] $end
      $scope module adder0 $end
       $var wire 1 : a $end
       $var wire 1 9! b $end
       $var wire 1 8! c_in $end
       $var wire 1 b s $end
       $var wire 1 :! c_out $end
      $upscope $end
     $upscope $end
     $scope module genblk1[28] $end
      $scope module adder0 $end
       $var wire 1 ; a $end
       $var wire 1 ;! b $end
       $var wire 1 :! c_in $end
       $var wire 1 c s $end
       $var wire 1 <! c_out $end
      $upscope $end
     $upscope $end
     $scope module genblk1[29] $end
      $scope module adder0 $end
       $var wire 1 < a $end
       $var wire 1 =! b $end
       $var wire 1 <! c_in $end
       $var wire 1 d s $end
       $var wire 1 >! c_out $end
      $upscope $end
     $upscope $end
     $scope module genblk1[2] $end
      $scope module adder0 $end
       $var wire 1 = a $end
       $var wire 1 ?! b $end
       $var wire 1 *! c_in $end
       $var wire 1 e s $end
       $var wire 1 @! c_out $end
      $upscope $end
     $upscope $end
     $scope module genblk1[30] $end
      $scope module adder0 $end
       $var wire 1 > a $end
       $var wire 1 A! b $end
       $var wire 1 >! c_in $end
       $var wire 1 f s $end
       $var wire 1 B! c_out $end
      $upscope $end
     $upscope $end
     $scope module genblk1[31] $end
      $scope module adder0 $end
       $var wire 1 ? a $end
       $var wire 1 C! b $end
       $var wire 1 B! c_in $end
       $var wire 1 g s $end
       $var wire 1 K c_out $end
      $upscope $end
     $upscope $end
     $scope module genblk1[3] $end
      $scope module adder0 $end
       $var wire 1 @ a $end
       $var wire 1 D! b $end
       $var wire 1 @! c_in $end
       $var wire 1 h s $end
       $var wire 1 E! c_out $end
      $upscope $end
     $upscope $end
     $scope module genblk1[4] $end
      $scope module adder0 $end
       $var wire 1 A a $end
       $var wire 1 F! b $end
       $var wire 1 E! c_in $end
       $var wire 1 i s $end
       $var wire 1 G! c_out $end
      $upscope $end
     $upscope $end
     $scope module genblk1[5] $end
      $scope module adder0 $end
       $var wire 1 B a $end
       $var wire 1 H! b $end
       $var wire 1 G! c_in $end
       $var wire 1 j s $end
       $var wire 1 I! c_out $end
      $upscope $end
     $upscope $end
     $scope module genblk1[6] $end
      $scope module adder0 $end
       $var wire 1 C a $end
       $var wire 1 J! b $end
       $var wire 1 I! c_in $end
       $var wire 1 k s $end
       $var wire 1 K! c_out $end
      $upscope $end
     $upscope $end
     $scope module genblk1[7] $end
      $scope module adder0 $end
       $var wire 1 D a $end
       $var wire 1 L! b $end
       $var wire 1 K! c_in $end
       $var wire 1 l s $end
       $var wire 1 M! c_out $end
      $upscope $end
     $upscope $end
     $scope module genblk1[8] $end
      $scope module adder0 $end
       $var wire 1 E a $end
       $var wire 1 N! b $end
       $var wire 1 M! c_in $end
       $var wire 1 m s $end
       $var wire 1 O! c_out $end
      $upscope $end
     $upscope $end
     $scope module genblk1[9] $end
      $scope module adder0 $end
       $var wire 1 F a $end
       $var wire 1 P! b $end
       $var wire 1 O! c_in $end
       $var wire 1 n s $end
       $var wire 1 s c_out $end
      $upscope $end
     $upscope $end
    $upscope $end
   $upscope $end
   $scope module adder1 $end
    $var wire 1 T! a $end
    $var wire 1 T! b $end
    $var wire 1 U! c_in $end
    $var wire 1 U! s $end
    $var wire 1 T! c_out $end
   $upscope $end
   $scope module judge $end
    $var wire 32 # a [31:0] $end
    $var wire 32 $ b [31:0] $end
    $var wire 1 % do_sub $end
    $var wire 32 J s [31:0] $end
    $var wire 1 K c $end
    $var wire 1 L error $end
    $var wire 32 G s_result [31:0] $end
    $var wire 1 H c_result $end
   $upscope $end
   $scope module unnamedblk1 $end
    $var wire 32 I i [31:0] $end
   $upscope $end
  $upscope $end
 $upscope $end
$enddefinitions $end


#0
b01111001011101100111001111000100 #
b00001011000111100101110110011100 $
0%
b00000000000000000000000000000000 &
0'
0(
0)
1*
1+
1,
0-
0.
1/
10
01
02
13
14
15
06
17
08
09
1:
1;
1<
1=
1>
0?
0@
0A
0B
1C
1D
1E
1F
b10000100100101001101000101100000 G
0H
b00000000000000000000000000000000 I
b10000100100101001101000101100000 J
0K
0L
b011110110111111001111111100111000 M
0O
0P
0Q
1R
0S
1T
1U
0V
0W
1X
0Y
0Z
1[
0\
0]
1^
0_
0`
1a
0b
0c
0d
0e
0f
1g
0h
0i
1j
1k
0l
1m
0n
b00001011000111100101110110011100 o
0p
0q
1r
1s
1t
1u
1v
1w
1x
0y
1z
1{
1|
0}
0~
0!!
0"!
1#!
1$!
1%!
1&!
1'!
1(!
0)!
0*!
1+!
1,!
0-!
1.!
0/!
10!
01!
02!
13!
14!
15!
16!
07!
08!
19!
1:!
0;!
1<!
0=!
1>!
1?!
1@!
0A!
1B!
0C!
1D!
1E!
1F!
1G!
0H!
0I!
0J!
0K!
1L!
1M!
1N!
1O!
0P!
1Q!
b00000000000000000000000000100000 R!
b00000000000000000000000000000000 S!
1T!
0U!
#500
0Q!
#1000
1Q!
#1500
0Q!
#2000
b10011110111111011101010100000010 #
b01001000110000101110000011100100 $
1(
0+
1-
1.
0/
11
12
16
07
18
19
0<
0=
0>
1?
0C
0D
0F
b11100111110000001011010111100110 G
b00000000000000000000000000000001 I
b11100111110000001011010111100110 J
b000110001111111111000000000000000 M
1P
1S
0T
0X
1Z
0[
1]
1_
1`
1d
1e
1f
1l
b01001000110000101110000011100100 o
0r
0s
0t
0u
0v
0w
0x
1y
0z
1}
1~
1"!
0%!
0'!
0+!
1/!
11!
12!
03!
04!
05!
06!
0>!
0@!
1A!
0B!
0D!
0E!
0F!
0G!
1H!
1J!
0M!
0N!
0O!
1Q!
#2500
0Q!
#3000
1Q!
#3500
0Q!
#4000
b10010010000101111000001101111000 #
b10111011110101011000111010111100 $
0(
0*
0,
1/
01
02
04
05
06
09
0:
1@
1A
1B
1C
1F
b01001101111011010001001000110100 G
1H
b00000000000000000000000000000010 I
b01001101111011010001001000110100 J
1K
b101100100001011110001111111110000 M
0P
0S
0U
1V
1X
1Y
0Z
1\
0`
1b
0d
0g
1i
0k
0l
0m
1n
b10111011110101011000111010111100 o
1r
1s
1t
1u
1v
0y
0{
0|
1!!
0#!
1%!
0(!
1+!
0.!
00!
02!
13!
15!
16!
0:!
1;!
1=!
1>!
0A!
1C!
1D!
1E!
1F!
1G!
1I!
0J!
1K!
1M!
1O!
1P!
1Q!
#4500
0Q!
#5000
1Q!
#5500
0Q!
#6000
b11001010101001001001111010110110 #
b00101010000101001111111111100100 $
1(
1)
1*
0.
0/
12
03
14
16
1:
0;
1=
1>
0@
0C
1D
0E
b11110100101110011001111010011010 G
0H
b00000000000000000000000000000011 I
b11110100101110011001111010011010 J
0K
b000010100000010011111111111001000 M
1P
1Q
1U
0X
1Z
1[
0]
0_
0b
1c
1d
0e
1g
1h
0j
1l
b00101010000101001111111111100100 o
1w
1x
1y
1z
1{
1|
0!!
0"!
0$!
0,!
0/!
01!
03!
1:!
0;!
0<!
0>!
1@!
0C!
0D!
0E!
0F!
0G!
1J!
1N!
1Q!
#6500
0Q!
#7000
1Q!
#7500
0Q!
#8000
b01111101011011111111001110110111 #
b11111100110001000111000101010011 $
1'
0(
0)
1+
1,
1.
1/
11
15
06
17
08
19
1;
1<
0?
1E
b01111010001101000110010100001010 G
1H
b00000000000000000000000000000100 I
b01111010001101000110010100001010 J
1K
b111111011100111111110011111101110 M
0Q
0R
1S
1T
0U
0V
1X
0Y
0^
1`
0a
1b
0g
0i
0l
1m
0n
b11111100110001000111000101010011 o
1p
1q
0r
0t
0u
0v
0}
1"!
1$!
1(!
1)!
1*!
0+!
1/!
10!
11!
12!
14!
05!
06!
17!
18!
1;!
1<!
1>!
0?!
1A!
1B!
1C!
1F!
1G!
0H!
0L!
0P!
1Q!
#8500
0Q!
#9000
1Q!
#9500
0Q!
#10000
b01101111100111100001011100100001 #
b10001010100110100111110111100001 $
1(
0+
0,
0-
0.
02
13
04
05
16
18
0;
0=
0A
0D
b11111010001110001001010100000010 G
0H
b00000000000000000000000000000101 I
b11111010001110001001010100000010 J
0K
b000011111001111001111111111000010 M
1R
0S
0T
1U
0X
1Y
1g
0h
b10001010100110100111110111100001 o
1r
1t
1u
1v
0~
0"!
1#!
0%!
1'!
0)!
0*!
1+!
1,!
0/!
00!
15!
16!
07!
0;!
0<!
0=!
0>!
0@!
0A!
0B!
0F!
0G!
1H!
1L!
1Q!
#10500
0Q!
#11000
1Q!
#11500
0Q!
#12000
b11011111100011001010111111000101 #
b00010010010100111111001110000010 $
1)
0*
1+
1-
0/
03
1;
0<
1=
1?
0B
1C
1D
b11110001111000001010001101000111 G
b00000000000000000000000000000110 I
b11110001111000001010001101000111 J
b000111100001111111111111100000000 M
1O
0P
0R
1S
0Y
0[
1]
1^
1_
0`
0b
1e
1k
1n
b00010010010100111111001110000010 o
0p
0q
0r
0u
1}
1~
1!!
1"!
0'!
1)!
1/!
01!
02!
04!
09!
1;!
1<!
0C!
0H!
0I!
0J!
0K!
1P!
1Q!
#12500
0Q!
#13000
1Q!
#13500
0Q!
#14000
b10100100010100011111111101100010 #
b01110011010110000001011000110101 $
0'
1*
1,
1.
00
01
12
13
15
06
07
08
0:
0;
1<
0=
0>
1B
0D
b00010111101010100001010110010111 G
1H
b00000000000000000000000000000111 I
b00010111101010100001010110010111 J
1K
b111000000101000111111110011000000 M
1P
1R
0S
0U
1W
1Y
0]
1`
1a
0d
0f
0g
1i
0k
1l
0n
b01110011010110000001011000110101 o
1p
1r
0y
0{
0}
0!!
0#!
0$!
0&!
1'!
0(!
0)!
10!
13!
06!
08!
0:!
0<!
1=!
1>!
1?!
1A!
1B!
1F!
1H!
1I!
1K!
0L!
0M!
0N!
0O!
1Q!
#14500
0Q!
#15000
1Q!
#15500
0Q!
#16000
b10101101111110111100100100010010 #
b01100010111110011010101101010110 $
0(
0*
0+
1/
11
14
16
17
1:
1A
0B
0C
0F
b00010000111101010111010001101000 G
b00000000000000000000000000001000 I
b00010000111101010111010001101000 J
b111011111111101110001011000101100 M
0O
1S
1T
1V
0W
1X
0Y
0Z
1[
1]
0_
0`
0a
0e
1h
0i
1j
1k
0l
0m
b01100010111110011010101101010110 o
0p
0r
0t
1u
0w
0x
1y
0z
0|
1}
1!!
1$!
1(!
1)!
1*!
1-!
1.!
11!
12!
03!
14!
16!
18!
1:!
0;!
1@!
1G!
0H!
0I!
1J!
0K!
1N!
1O!
1Q!
#16500
0Q!
#17000
1Q!
#17500
0Q!
#18000
b10110100001100100011101111111101 #
b11011100011010110100000111110100 $
1'
1*
1+
0,
0-
0.
01
02
05
06
07
0:
1;
1=
1@
1B
1C
1D
1F
b10010000100111010111110111110001 G
b00000000000000000000000000001001 I
b10010000100111010111110111110001 J
b111111000110001000000011111111000 M
1O
1Q
1Y
0\
0]
1g
0h
1i
1l
1m
b11011100011010110100000111110100 o
0u
0v
0y
1{
0}
0~
0"!
1#!
0(!
0)!
0*!
0+!
0,!
01!
02!
04!
05!
06!
17!
19!
1;!
1<!
0=!
1C!
1E!
1H!
1I!
1K!
1L!
1M!
0P!
1Q!
#18500
0Q!
#19000
1Q!
#19500
0Q!
#20000
b00000110101011011111010100111011 #
b11000110011011010100110101011000 $
1%
b11111111111111111111111111111111 &
1(
0)
1,
1-
1.
0/
10
11
12
03
16
18
0;
0<
0=
0?
0C
0D
0F
b01000000010000001010011111100011 G
0H
b00000000000000000000000000001010 I
b01000000010000001010011111100011 J
0K
b001111111011111111110000001111111 M
0Q
0R
0T
1U
0V
0X
0Y
1Z
0[
1]
0^
0c
1f
0g
0i
1n
b00111001100100101011001010100111 o
1p
1q
0s
1w
1x
1y
1z
0{
1|
1}
1~
0!!
1"!
1&!
0'!
1(!
1)!
1*!
1+!
1,!
0-!
0/!
00!
11!
12!
13!
14!
16!
07!
1=!
0A!
0B!
0C!
0F!
0J!
0K!
0M!
0N!
0O!
1P!
1Q!
#20500
0Q!
#21000
1Q!
#21500
0Q!
#22000
b11101001110011110000010010110010 #
b01010110110100010000100001011100 $
0'
0*
0+
0,
0-
1/
04
15
17
08
09
1:
1<
1>
1?
0@
1D
0E
b10010010111111011111110001010110 G
1H
b00000000000000000000000000000001 I
b10010010111111011111110001010110 J
1K
b111010010000111000000111101000111 M
0O
1Q
1R
1T
1V
1X
1Y
1[
1\
1^
1`
1c
1e
0f
1g
1i
0j
0l
0m
0n
b10101001001011101111011110100011 o
1r
1s
1t
0x
0z
1{
0|
0~
0"!
1%!
1'!
0+!
0,!
1-!
0.!
01!
02!
06!
08!
0;!
0<!
0?!
0@!
1B!
1C!
0E!
0G!
1M!
1N!
1O!
1Q!
#22500
0Q!
#23000
1Q!
#23500
0Q!
#24000
b01011010000110111000010100011110 #
b10101101000111110100010110011110 $
1-
00
13
05
06
07
18
1;
0<
1=
0?
1@
0B
0D
1E
b10101100111111000011111110000000 G
0H
b00000000000000000000000000000010 I
b10101100111111000011111110000000 J
0K
b010100100000001110000000011111111 M
0T
0U
0V
0Z
0`
1a
1b
0c
1d
0e
0i
0k
1l
1m
1n
b01010010111000001011101001100001 o
0r
0s
0t
1u
0{
1~
1"!
0#!
0%!
0&!
0'!
0(!
0)!
1/!
11!
03!
04!
15!
16!
09!
0:!
1;!
1<!
0=!
0>!
1@!
1A!
0C!
1E!
1G!
1J!
1K!
0L!
0M!
0N!
0O!
1Q!
#24500
0Q!
#25000
1Q!
#25500
0Q!
#26000
b00111101111110001001100110011110 #
b01111011001100110001110011101110 $
0(
1)
1*
0.
0/
14
15
16
17
08
19
1<
0>
1D
b11000010110001010111110010110000 G
b00000000000000000000000000000011 I
b11000010110001010111110010110000 J
b001111011111100010000011000111111 M
1T
1V
0Y
0[
0\
1`
0a
0b
0d
1f
1i
1j
0m
0n
b10000100110011001110001100010001 o
1s
0u
0w
1{
0"!
0$!
1%!
1'!
1(!
1,!
0-!
1.!
10!
12!
14!
05!
06!
17!
18!
1:!
0;!
1>!
0A!
0B!
1C!
1F!
0H!
0I!
0J!
0K!
1N!
1O!
1Q!
#26500
0Q!
#27000
1Q!
#27500
0Q!
#28000
b10011000001110110110101100010000 #
b01000000111110110111111101110110 $
0*
1+
1,
0-
1.
1/
02
05
06
07
09
0<
0=
1?
0@
0D
1F
b01010111001111111110101110011010 G
1H
b00000000000000000000000000000100 I
b01010111001111111110101110011010 J
1K
b101110000000000000000000000000011 M
0P
0R
1U
1W
1Y
1Z
1[
1\
0]
0^
1_
1a
1c
0g
1h
0j
1m
1n
b10111111000001001000000010001001 o
0s
0y
0{
0~
0'!
0(!
0*!
0,!
0.!
0/!
00!
01!
02!
13!
04!
15!
08!
19!
1;!
1=!
0@!
1D!
0E!
0F!
0G!
1L!
0N!
0O!
0P!
1Q!
#28500
0Q!
#29000
1Q!
#29500
0Q!
#30000
b01011010010100001110110101100011 #
b01011001100111111010001011000000 $
1'
1(
1-
0.
0/
01
12
04
15
18
1>
0?
0A
1B
1C
0F
b00000000101100010100101010100011 G
b00000000000000000000000000000101 I
b00000000101100010100101010100011 J
b111111100100000011111101011111111 M
1O
0S
0U
0W
0X
0Y
1^
0_
0`
0a
0c
0f
0h
0i
1j
0m
b10100110011000000101110100111111 o
1r
1t
1u
1v
1w
1x
1z
1{
1|
0}
1~
0%!
1)!
1*!
1-!
1/!
10!
03!
16!
18!
09!
0;!
1?!
1@!
1B!
1E!
1F!
1G!
1H!
1I!
1K!
0L!
1N!
1O!
1Q!
#30500
0Q!
#31000
1Q!
#31500
0Q!
#32000
b00000001110010001011101100011101 #
b11000001000110110000111100100010 $
0(
1*
0,
11
02
03
16
17
08
0:
0;
1=
0>
1@
1A
0B
0C
1F
b01000000101011011010101111111011 G
0H
b00000000000000000000000000000110 I
b01000000101011011010101111111011 J
0K
b001111111100000011110000000111011 M
1S
0T
1U
1X
1Y
0[
1f
1h
1i
1k
1m
b00111110111001001111000011011101 o
0r
0t
0u
0v
1y
1}
1%!
0)!
0*!
11!
12!
14!
19!
1;!
0B!
0C!
0H!
0I!
1J!
0K!
1L!
0N!
0O!
1Q!
#32500
0Q!
#33000
1Q!
#33500
0Q!
#34000
b11101111100100111000111100000110 #
b10000101111011100101101110000001 $
0'
1(
0*
0+
1.
1/
01
12
13
05
18
19
1:
1<
1>
1?
0@
0A
b01101001101001010011001110000101 G
1H
b00000000000000000000000000000111 I
b01101001101001010011001110000101 J
1K
b111111100001001110001100011111101 M
0Q
1R
0U
0Y
0Z
1_
1b
1d
1e
0h
0i
0j
0k
b01111010000100011010010001111110 o
0p
0q
1r
1t
1v
0w
0x
0z
0{
0|
1!!
1"!
1$!
0%!
1)!
1*!
1+!
1,!
0-!
0/!
00!
01!
02!
04!
07!
1A!
1B!
1H!
1I!
1K!
0L!
1Q!
#34500
0Q!
#35000
1Q!
#35500
0Q!
#36000
b01111001001011010011001001100011 #
b11000100010101001100001001111000 $
1'
0(
0)
1*
1+
0-
0/
10
11
03
14
06
08
09
1;
0=
0?
1B
1C
0E
b10110100110110000110111111101011 G
0H
b00000000000000000000000000001000 I
b10110100110110000110111111101011 J
0K
b011110110010111100110000000001111 M
1P
1Q
0R
1T
0V
0X
1Y
1Z
1[
0\
1]
0_
1a
0b
1c
0e
0f
1g
1h
1j
1k
b00111011101010110011110110000111 o
1p
1q
0t
1u
0v
1w
1x
1z
0}
0~
1#!
1&!
1'!
1(!
0+!
0,!
1-!
1.!
11!
13!
14!
08!
0A!
0D!
0E!
0F!
0G!
0H!
0I!
0J!
0K!
1L!
1N!
1Q!
#36500
0Q!
#37000
1Q!
#37500
0Q!
#38000
b01100000011000101011111001101111 #
b01100011010101001101101011001110 $
1(
1)
1-
0.
1/
00
01
15
07
0:
0;
1=
1@
b11111101000011011110001110100001 G
b00000000000000000000000000001001 I
b11111101000011011110001110100001 J
b000000001110001000111100011111111 M
0P
0Q
1U
1V
1X
0Z
0[
0]
0^
1_
1b
1f
0h
0k
b10011100101010110010010100110001 o
1t
0u
1v
0w
0"!
0&!
0(!
0)!
10!
12!
03!
04!
05!
06!
17!
0:!
0<!
0=!
0>!
0?!
0B!
1C!
1E!
1F!
1G!
1H!
1I!
1K!
0L!
1Q!
#38500
0Q!
#39000
1Q!
#39500
0Q!
#40000
b00000000000000000000000000001010 I
1Q!
