Labs/lab0-2/build/verilate/Testbench.vcd
$version Generated by VerilatedVcd $end
$timescale 10ps $end
 $scope module TOP $end
  $scope module Testbench $end
   $var wire 1 # I0 $end
   $var wire 1 $ I1 $end
   $var wire 1 % I2 $end
   $var wire 1 & O $end
   $scope module dut $end
    $var wire 1 # I0 $end
    $var wire 1 $ I1 $end
    $var wire 1 % I2 $end
    $var wire 1 & O $end
    $var wire 1 $ s_logisimNet0 $end
    $var wire 1 # s_logisimNet1 $end
    $var wire 1 & s_logisimNet10 $end
    $var wire 1 ' s_logisimNet2 $end
    $var wire 1 ( s_logisimNet3 $end
    $var wire 1 ) s_logisimNet4 $end
    $var wire 1 % s_logisimNet5 $end
    $var wire 1 * s_logisimNet6 $end
    $var wire 1 + s_logisimNet7 $end
    $var wire 1 , s_logisimNet8 $end
    $var wire 1 - s_logisimNet9 $end
    $scope module GATES_1 $end
     $var wire 3 . BubblesMask [2:0] $end
     $var wire 1 # input1 $end
     $var wire 1 ' input2 $end
     $var wire 1 ( input3 $end
     $var wire 1 ) result $end
     $var wire 1 # s_realInput1 $end
     $var wire 1 ' s_realInput2 $end
     $var wire 1 ( s_realInput3 $end
    $upscope $end
    $scope module GATES_2 $end
     $var wire 3 . BubblesMask [2:0] $end
     $var wire 1 % input1 $end
     $var wire 1 - input2 $end
     $var wire 1 ' input3 $end
     $var wire 1 + result $end
     $var wire 1 % s_realInput1 $end
     $var wire 1 - s_realInput2 $end
     $var wire 1 ' s_realInput3 $end
    $upscope $end
    $scope module GATES_3 $end
     $var wire 3 . BubblesMask [2:0] $end
     $var wire 1 $ input1 $end
     $var wire 1 - input2 $end
     $var wire 1 ( input3 $end
     $var wire 1 , result $end
     $var wire 1 $ s_realInput1 $end
     $var wire 1 - s_realInput2 $end
     $var wire 1 ( s_realInput3 $end
    $upscope $end
    $scope module GATES_4 $end
     $var wire 3 . BubblesMask [2:0] $end
     $var wire 1 # input1 $end
     $var wire 1 $ input2 $end
     $var wire 1 % input3 $end
     $var wire 1 * result $end
     $var wire 1 # s_realInput1 $end
     $var wire 1 $ s_realInput2 $end
     $var wire 1 % s_realInput3 $end
    $upscope $end
    $scope module GATES_5 $end
     $var wire 4 / BubblesMask [3:0] $end
     $var wire 1 ) input1 $end
     $var wire 1 , input2 $end
     $var wire 1 + input3 $end
     $var wire 1 * input4 $end
     $var wire 1 & result $end
     $var wire 1 ) s_realInput1 $end
     $var wire 1 , s_realInput2 $end
     $var wire 1 + s_realInput3 $end
     $var wire 1 * s_realInput4 $end
    $upscope $end
   $upscope $end
  $upscope $end
 $upscope $end
$enddefinitions $end


#0
0#
0$
0%
0&
1'
1(
0)
0*
0+
0,
1-
b000 .
b0000 /
#500
1%
1&
0(
1+
#1000
1$
0%
0'
1(
0+
1,
#1500
1%
0&
0(
0,
#2000
1#
0$
0%
1&
1'
1(
1)
0-
#2500
1%
0&
0(
0)
#3000
1$
0%
0'
1(
#3500
1%
1&
0(
1*
