Labs/lab1-2/build/verilate/Testbench.vcd
$version Generated by VerilatedVcd $end
$timescale 1ps $end
 $scope module TOP $end
  $scope module Testbench $end
   $var wire 4 + data [3:0] $end
   $var wire 1 , point $end
   $var wire 1 - LE $end
   $var wire 1 # a $end
   $var wire 1 $ b $end
   $var wire 1 % c $end
   $var wire 1 & d $end
   $var wire 1 ' e $end
   $var wire 1 ( f $end
   $var wire 1 ) g $end
   $var wire 1 * p $end
   $var wire 32 . i [31:0] $end
   $scope module dut $end
    $var wire 4 + data [3:0] $end
    $var wire 1 , point $end
    $var wire 1 - LE $end
    $var wire 1 # a $end
    $var wire 1 $ b $end
    $var wire 1 % c $end
    $var wire 1 & d $end
    $var wire 1 ' e $end
    $var wire 1 ( f $end
    $var wire 1 ) g $end
    $var wire 1 * p $end
    $var wire 1 # ta $end
    $var wire 1 $ tb $end
    $var wire 1 % tc $end
    $var wire 1 & td $end
    $var wire 1 ' te $end
    $var wire 1 ( tf $end
    $var wire 1 ) tg $end
    $var wire 1 * tp $end
   $upscope $end
  $upscope $end
 $upscope $end
$enddefinitions $end


#0
1#
1$
1%
1&
1'
1(
1)
1*
b1001 +
1,
1-
b00000000000000000000000000000000 .
#5000
0#
0$
0%
0&
0'
0(
b0000 +
0-
#10000
1#
1&
1'
1(
b0001 +
b00000000000000000000000000000001 .
#15000
0#
1%
0&
0'
0)
b0010 +
b00000000000000000000000000000010 .
#20000
0%
1'
b0011 +
b00000000000000000000000000000011 .
#25000
1#
1&
0(
b0100 +
b00000000000000000000000000000100 .
#30000
0#
1$
0&
b0101 +
b00000000000000000000000000000101 .
#35000
0'
b0110 +
b00000000000000000000000000000110 .
#40000
0$
1&
1'
1(
1)
b0111 +
b00000000000000000000000000000111 .
#45000
0&
0'
0(
0)
0*
b1000 +
0,
b00000000000000000000000000001000 .
#50000
1'
b1001 +
b00000000000000000000000000001001 .
#55000
1&
0'
b1010 +
b00000000000000000000000000001010 .
#60000
1#
1$
0&
b1011 +
b00000000000000000000000000001011 .
#65000
0#
1%
1)
b1100 +
b00000000000000000000000000001100 .
#70000
1#
0$
0%
1(
0)
b1101 +
b00000000000000000000000000001101 .
#75000
0#
1$
1%
0(
b1110 +
b00000000000000000000000000001110 .
#80000
1&
b1111 +
b00000000000000000000000000001111 .
#85000
b00000000000000000000000000010000 .
