Labs/lab4-2/build/verilate/Testbench.vcd
$version Generated by VerilatedVcd $end
$timescale 10ps $end
 $scope module TOP $end
  $scope module UartPack $end
   $var wire 32 0! UART_DATA_WIDTH [31:0] $end
   $var wire 32 0! UART_STRUCT_WIDTH [31:0] $end
  $upscope $end
  $scope module Testbench $end
   $var wire 40 *! FIFO_KIND [39:0] $end
   $var wire 1 %! clk $end
   $var wire 1 &! rstn $end
   $var wire 32 '! clk_div [31:0] $end
   $var wire 1 @ rxd $end
   $var wire 1 z txd $end
   $var wire 1 ,! rts $end
   $var wire 1 ,! cts $end
   $var wire 8 d debug_rdata [7:0] $end
   $var wire 8 e debug_tdata [7:0] $end
   $var wire 1 X error $end
   $scope module genblk1 $end
    $scope module loop_test $end
     $var wire 32 -! ClkFrequency [31:0] $end
     $var wire 32 .! Baud [31:0] $end
     $var wire 40 *! FIFO_KIND [39:0] $end
     $var wire 1 (! core_clk $end
     $var wire 1 %! sys_clk $end
     $var wire 1 &! rstn $end
     $var wire 1 @ rxd $end
     $var wire 1 ,! rts $end
     $var wire 1 z txd $end
     $var wire 1 ,! cts $end
     $var wire 8 /! debug_data [7:0] $end
     $var wire 1 ,! debug_send $end
     $var wire 8 e debug_tdata [7:0] $end
     $var wire 8 d debug_rdata [7:0] $end
     $scope module uart_tdata $end
      $var wire 32 0! DATA_WIDTH [31:0] $end
      $var wire 8 t data [7:0] $end
      $var wire 1 s valid $end
      $var wire 1 x ready $end
     $upscope $end
     $scope module uart_rdata $end
      $var wire 32 0! DATA_WIDTH [31:0] $end
      $var wire 8 l data [7:0] $end
      $var wire 1 y valid $end
      $var wire 1 k ready $end
     $upscope $end
     $scope module uart_loop $end
      $var wire 1 (! clk $end
      $var wire 1 &! rstn $end
      $scope module uart_rdata $end
       $var wire 32 0! DATA_WIDTH [31:0] $end
       $var wire 8 l data [7:0] $end
       $var wire 1 y valid $end
       $var wire 1 k ready $end
      $upscope $end
      $scope module uart_tdata $end
       $var wire 32 0! DATA_WIDTH [31:0] $end
       $var wire 8 t data [7:0] $end
       $var wire 1 s valid $end
       $var wire 1 x ready $end
      $upscope $end
      $var wire 8 /! debug_data [7:0] $end
      $var wire 1 ,! debug_send $end
      $var wire 8 d debug_rdata [7:0] $end
      $var wire 8 e debug_tdata [7:0] $end
      $var wire 8 d rdata [7:0] $end
      $var wire 1 f rdata_valid $end
      $var wire 8 e tdata [7:0] $end
      $var wire 1 g tdata_valid $end
      $var wire 1 h debug $end
      $var wire 2 i state_reg [1:0] $end
     $upscope $end
     $scope module uart_unit $end
      $var wire 32 -! ClkFrequency [31:0] $end
      $var wire 32 .! Baud [31:0] $end
      $var wire 32 0! FIFO_DEPTH [31:0] $end
      $var wire 40 *! FIFO_KIND [39:0] $end
      $var wire 1 (! core_clk $end
      $var wire 1 &! rstn $end
      $scope module uart_tdata $end
       $var wire 32 0! DATA_WIDTH [31:0] $end
       $var wire 8 t data [7:0] $end
       $var wire 1 s valid $end
       $var wire 1 x ready $end
      $upscope $end
      $scope module uart_rdata $end
       $var wire 32 0! DATA_WIDTH [31:0] $end
       $var wire 8 l data [7:0] $end
       $var wire 1 y valid $end
       $var wire 1 k ready $end
      $upscope $end
      $var wire 1 %! sys_clk $end
      $var wire 1 @ rxd $end
      $var wire 1 ,! rts $end
      $var wire 1 z txd $end
      $var wire 1 ,! cts $end
      $scope module uart_txd $end
       $var wire 32 0! DATA_WIDTH [31:0] $end
       $var wire 8 7 data [7:0] $end
       $var wire 1 = valid $end
       $var wire 1 U ready $end
      $upscope $end
      $scope module uart_rxd $end
       $var wire 32 0! DATA_WIDTH [31:0] $end
       $var wire 8 # data [7:0] $end
       $var wire 1 T valid $end
       $var wire 1 c ready $end
      $upscope $end
      $scope module receiver $end
       $var wire 32 -! ClkFrequency [31:0] $end
       $var wire 32 .! Baud [31:0] $end
       $var wire 1 %! clk $end
       $var wire 1 &! rstn $end
       $scope module uart_data $end
        $var wire 32 0! DATA_WIDTH [31:0] $end
        $var wire 8 # data [7:0] $end
        $var wire 1 T valid $end
        $var wire 1 c ready $end
       $upscope $end
       $var wire 1 @ rxd $end
       $var wire 1 ,! rts $end
       $scope module receiver $end
        $var wire 1 %! clk $end
        $var wire 1 @ RxD $end
        $var wire 1 T RxD_data_ready $end
        $var wire 1 )! RxD_clear $end
        $var wire 8 # RxD_data [7:0] $end
        $var wire 32 -! ClkFrequency [31:0] $end
        $var wire 32 .! Baud [31:0] $end
        $var wire 32 0! Oversampling [31:0] $end
        $var wire 1 $ RxD_idle $end
        $var wire 1 % RxD_endofpacket $end
        $var wire 4 & RxD_state [3:0] $end
        $var wire 1 ' OversamplingTick $end
        $var wire 2 ( RxD_sync [1:0] $end
        $var wire 2 ) Filter_cnt [1:0] $end
        $var wire 1 * RxD_bit $end
        $var wire 32 1! l2o [31:0] $end
        $var wire 3 + OversamplingCnt [2:0] $end
        $var wire 32 2! OversamplingCntUpper [31:0] $end
        $var wire 1 , sampleNow $end
        $var wire 6 - GapCnt [5:0] $end
        $scope module tickgen $end
         $var wire 1 %! clk $end
         $var wire 1 3! enable $end
         $var wire 1 ' tick $end
         $var wire 32 -! ClkFrequency [31:0] $end
         $var wire 32 .! Baud [31:0] $end
         $var wire 32 0! Oversampling [31:0] $end
         $var wire 32 4! AccWidth [31:0] $end
         $var wire 13 . Acc [12:0] $end
         $var wire 32 0! ShiftLimiter [31:0] $end
         $var wire 32 5! Inc [31:0] $end
        $upscope $end
       $upscope $end
      $upscope $end
      $scope module rfifo $end
       $var wire 32 0! FIFO_DEPTH [31:0] $end
       $var wire 40 *! FIFO_KIND [39:0] $end
       $var wire 1 &! rstn $end
       $var wire 1 (! out_clk $end
       $scope module out_data $end
        $var wire 32 0! DATA_WIDTH [31:0] $end
        $var wire 8 l data [7:0] $end
        $var wire 1 y valid $end
        $var wire 1 k ready $end
       $upscope $end
       $var wire 1 %! in_clk $end
       $scope module in_data $end
        $var wire 32 0! DATA_WIDTH [31:0] $end
        $var wire 8 # data [7:0] $end
        $var wire 1 T valid $end
        $var wire 1 c ready $end
       $upscope $end
       $var wire 1 j empty $end
       $var wire 1 ] full $end
       $scope module fifo $end
        $var wire 32 0! DATA_WIDTH [31:0] $end
        $var wire 32 0! FIFO_DEPTH [31:0] $end
        $var wire 40 *! FIFO_KIND [39:0] $end
        $var wire 1 &! rstn $end
        $var wire 1 (! rclk $end
        $var wire 1 k ren $end
        $var wire 8 l out_data [7:0] $end
        $var wire 1 j empty $end
        $var wire 1 %! wclk $end
        $var wire 1 T wen $end
        $var wire 8 # in_data [7:0] $end
        $var wire 1 ] full $end
        $scope module genblk1 $end
         $scope module fifo $end
          $var wire 32 0! DATA_WIDTH [31:0] $end
          $var wire 32 0! FIFO_DEPTH [31:0] $end
          $var wire 1 &! rstn $end
          $var wire 1 (! rclk $end
          $var wire 1 k ren $end
          $var wire 8 l out_data [7:0] $end
          $var wire 1 j empty $end
          $var wire 1 %! wclk $end
          $var wire 1 T wen $end
          $var wire 8 # in_data [7:0] $end
          $var wire 1 ] full $end
          $var wire 8 { fifo[0] [7:0] $end
          $var wire 8 | fifo[1] [7:0] $end
          $var wire 8 } fifo[2] [7:0] $end
          $var wire 8 ~ fifo[3] [7:0] $end
          $var wire 8 !! fifo[4] [7:0] $end
          $var wire 8 "! fifo[5] [7:0] $end
          $var wire 8 #! fifo[6] [7:0] $end
          $var wire 8 $! fifo[7] [7:0] $end
          $var wire 32 1! ADDR_WIDTH [31:0] $end
          $var wire 4 2 wptr [3:0] $end
          $var wire 4 m rptr [3:0] $end
          $var wire 3 3 windex [2:0] $end
          $var wire 3 n rindex [2:0] $end
          $var wire 8 l out_data_buffer [7:0] $end
          $var wire 1 o out_data_valid $end
          $var wire 1 p empty_tmp $end
          $var wire 4 F rptr_gray [3:0] $end
          $var wire 4 q rptr_gray_tmp [3:0] $end
          $var wire 4 ^ wptr_gray [3:0] $end
          $var wire 4 _ wptr_gray_tmp [3:0] $end
          $var wire 4 4 rptr_gray_d[0] [3:0] $end
          $var wire 4 5 rptr_gray_d[1] [3:0] $end
          $var wire 4 G wptr_gray_d[0] [3:0] $end
          $var wire 4 H wptr_gray_d[1] [3:0] $end
         $upscope $end
        $upscope $end
       $upscope $end
      $upscope $end
      $scope module tfifo $end
       $var wire 32 0! FIFO_DEPTH [31:0] $end
       $var wire 40 *! FIFO_KIND [39:0] $end
       $var wire 1 &! rstn $end
       $var wire 1 %! out_clk $end
       $scope module out_data $end
        $var wire 32 0! DATA_WIDTH [31:0] $end
        $var wire 8 7 data [7:0] $end
        $var wire 1 = valid $end
        $var wire 1 U ready $end
       $upscope $end
       $var wire 1 (! in_clk $end
       $scope module in_data $end
        $var wire 32 0! DATA_WIDTH [31:0] $end
        $var wire 8 t data [7:0] $end
        $var wire 1 s valid $end
        $var wire 1 x ready $end
       $upscope $end
       $var wire 1 6 empty $end
       $var wire 1 r full $end
       $scope module fifo $end
        $var wire 32 0! DATA_WIDTH [31:0] $end
        $var wire 32 0! FIFO_DEPTH [31:0] $end
        $var wire 40 *! FIFO_KIND [39:0] $end
        $var wire 1 &! rstn $end
        $var wire 1 %! rclk $end
        $var wire 1 U ren $end
        $var wire 8 7 out_data [7:0] $end
        $var wire 1 6 empty $end
        $var wire 1 (! wclk $end
        $var wire 1 s wen $end
        $var wire 8 t in_data [7:0] $end
        $var wire 1 r full $end
        $scope module genblk1 $end
         $scope module fifo $end
          $var wire 32 0! DATA_WIDTH [31:0] $end
          $var wire 32 0! FIFO_DEPTH [31:0] $end
          $var wire 1 &! rstn $end
          $var wire 1 %! rclk $end
          $var wire 1 U ren $end
          $var wire 8 7 out_data [7:0] $end
          $var wire 1 6 empty $end
          $var wire 1 (! wclk $end
          $var wire 1 s wen $end
          $var wire 8 t in_data [7:0] $end
          $var wire 1 r full $end
          $var wire 8 L fifo[0] [7:0] $end
          $var wire 8 M fifo[1] [7:0] $end
          $var wire 8 N fifo[2] [7:0] $end
          $var wire 8 O fifo[3] [7:0] $end
          $var wire 8 P fifo[4] [7:0] $end
          $var wire 8 Q fifo[5] [7:0] $end
          $var wire 8 R fifo[6] [7:0] $end
          $var wire 8 S fifo[7] [7:0] $end
          $var wire 32 1! ADDR_WIDTH [31:0] $end
          $var wire 4 u wptr [3:0] $end
          $var wire 4 8 rptr [3:0] $end
          $var wire 3 v windex [2:0] $end
          $var wire 3 9 rindex [2:0] $end
          $var wire 8 7 out_data_buffer [7:0] $end
          $var wire 1 : out_data_valid $end
          $var wire 1 ` empty_tmp $end
          $var wire 4 a rptr_gray [3:0] $end
          $var wire 4 b rptr_gray_tmp [3:0] $end
          $var wire 4 I wptr_gray [3:0] $end
          $var wire 4 w wptr_gray_tmp [3:0] $end
          $var wire 4 J rptr_gray_d[0] [3:0] $end
          $var wire 4 K rptr_gray_d[1] [3:0] $end
          $var wire 4 ; wptr_gray_d[0] [3:0] $end
          $var wire 4 < wptr_gray_d[1] [3:0] $end
         $upscope $end
        $upscope $end
       $upscope $end
      $upscope $end
      $scope module transmit $end
       $var wire 32 -! ClkFrequency [31:0] $end
       $var wire 32 .! Baud [31:0] $end
       $var wire 1 %! clk $end
       $var wire 1 &! rstn $end
       $scope module uart_data $end
        $var wire 32 0! DATA_WIDTH [31:0] $end
        $var wire 8 7 data [7:0] $end
        $var wire 1 = valid $end
        $var wire 1 U ready $end
       $upscope $end
       $var wire 1 z txd $end
       $var wire 1 ,! cts $end
       $var wire 8 7 txd_data [7:0] $end
       $var wire 1 = txd_start $end
       $var wire 1 V txd_busy $end
       $scope module transmitter $end
        $var wire 1 %! clk $end
        $var wire 1 = TxD_start $end
        $var wire 8 7 TxD_data [7:0] $end
        $var wire 1 z TxD $end
        $var wire 1 V TxD_busy $end
        $var wire 32 -! ClkFrequency [31:0] $end
        $var wire 32 .! Baud [31:0] $end
        $var wire 1 / BitTick $end
        $var wire 4 W TxD_state [3:0] $end
        $var wire 1 U TxD_ready $end
        $var wire 8 0 TxD_shift [7:0] $end
        $scope module tickgen $end
         $var wire 1 %! clk $end
         $var wire 1 V enable $end
         $var wire 1 / tick $end
         $var wire 32 -! ClkFrequency [31:0] $end
         $var wire 32 .! Baud [31:0] $end
         $var wire 32 6! Oversampling [31:0] $end
         $var wire 32 4! AccWidth [31:0] $end
         $var wire 13 1 Acc [12:0] $end
         $var wire 32 7! ShiftLimiter [31:0] $end
         $var wire 32 8! Inc [31:0] $end
        $upscope $end
       $upscope $end
      $upscope $end
     $upscope $end
    $upscope $end
   $upscope $end
   $scope module judge $end
    $var wire 32 -! ClkFrequency [31:0] $end
    $var wire 32 .! Baud [31:0] $end
    $var wire 1 %! sys_clk $end
    $var wire 1 &! rstn $end
    $var wire 1 z txd $end
    $var wire 1 ,! cts $end
    $var wire 1 @ rxd $end
    $var wire 1 ,! rts $end
    $var wire 1 X error $end
    $var wire 32 7! BaudCnt [31:0] $end
    $var wire 32 1! BaudCnt_1 [31:0] $end
    $var wire 32 2! BaudWidth [31:0] $end
    $var wire 3 > baud_cnt [2:0] $end
    $var wire 1 ? baud_clk $end
    $var wire 32 A rdata_cnt [31:0] $end
    $var wire 2 B rdata_state_reg [1:0] $end
    $var wire 3 C rwork_cnt [2:0] $end
    $var wire 8 D rdata [7:0] $end
    $var wire 32 E next_rdata [31:0] $end
    $var wire 32 Y tdata_cnt [31:0] $end
    $var wire 2 Z tdata_state_reg [1:0] $end
    $var wire 3 [ twork_cnt [2:0] $end
    $var wire 8 \ tdata [7:0] $end
   $upscope $end
  $upscope $end
 $upscope $end
$enddefinitions $end


#0
b00000000 #
0$
0%
b0000 &
0'
b11 (
b11 )
1*
b000 +
0,
b000000 -
b0000000000000 .
0/
b00000000 0
b0000000000000 1
b0000 2
b000 3
b0000 4
b0000 5
16
b00000000 7
b0000 8
b000 9
0:
b0000 ;
b0000 <
0=
b000 >
0?
0@
b00000000000000000000000000000000 A
b00 B
b000 C
b00000000 D
b00000000000000000000000000000000 E
b0000 F
b0000 G
b0000 H
b0000 I
b0000 J
b0000 K
b00000000 L
b00000000 M
b00000000 N
b00000000 O
b00000000 P
b00000000 Q
b00000000 R
b00000000 S
0T
1U
0V
b0000 W
0X
b00000000000000000000000000000000 Y
b00 Z
b000 [
b00000000 \
0]
b0000 ^
b0000 _
1`
b0000 a
b0000 b
1c
b00000000 d
b00000000 e
0f
0g
0h
b00 i
1j
0k
b00000000 l
b0000 m
b000 n
0o
1p
b0000 q
0r
0s
b00000000 t
b0000 u
b000 v
b0000 w
1x
0y
1z
b00000000 {
b00000000 |
b00000000 }
b00000000 ~
b00000000 !!
b00000000 "!
b00000000 #!
b00000000 $!
0%!
1&!
b00000000000000000000000000000000 '!
0(!
0)!
b0110000101110011011110010110111001100011 *!
0,!
b00000101111101011110000100000000 -!
b00000000100110001001011010000000 .!
b00000000 /!
b00000000000000000000000000001000 0!
b00000000000000000000000000000100 1!
b00000000000000000000000000000011 2!
13!
b00000000000000000000000000001100 4!
b00000000000000000000110011001101 5!
b00000000000000000000000000000001 6!
b00000000000000000000000000000101 7!
b00000000000000000000000110011010 8!
#500
b0110011001101 .
b0000110011010 1
b001 >
1%!
#700
b00000000000000000000000000000001 '!
#1000
0%!
#1500
1'
b1100110011010 .
b010 >
1%!
#1700
b00000000000000000000000000000010 '!
#2000
b000 >
1@
0%!
0&!
b00000000000000000000000000000000 '!
#2500
b000001 -
b1011001100111 .
1%!
#3000
0%!
#3500
b000010 -
b1001100110100 .
1%!
#4000
0%!
#4500
b000011 -
b1000000000001 .
1%!
#5000
0%!
#5500
0'
b000100 -
b0110011001110 .
1%!
#6000
0%!
#6500
1'
b1100110011011 .
1%!
#7000
0%!
1&!
#7500
b000101 -
b1011001101000 .
b001 >
1%!
#7700
b00000000000000000000000000000001 '!
#8000
0%!
#8500
b000110 -
b1001100110101 .
b010 >
1%!
#8700
b00000000000000000000000000000010 '!
#9000
0%!
#9500
b000111 -
b1000000000010 .
b011 >
1%!
#9700
b00000000000000000000000000000011 '!
#10000
0%!
#10500
0'
b001000 -
b0110011001111 .
b100 >
1%!
#10700
1k
b00000000000000000000000000000100 '!
1(!
#11000
0%!
#11500
1'
b1100110011100 .
b000 >
1?
0@
b00000000000000000000000000000001 A
b01 B
b111 C
b11000100 D
b01111001011101100111001111000100 E
1%!
#11700
b00000000000000000000000000000101 '!
#12000
0%!
#12500
b10 (
b001001 -
b1011001101001 .
b001 >
1%!
#12700
b00000000000000000000000000000110 '!
#13000
0%!
#13500
b00 (
b001010 -
b1001100110110 .
b010 >
1%!
#13700
b00000000000000000000000000000111 '!
#14000
0%!
#14500
b10 )
b001011 -
b1000000000011 .
b011 >
1%!
#14700
b00000000000000000000000000001000 '!
0(!
#15000
0%!
#15500
0'
b01 )
b001100 -
b0110011010000 .
b100 >
1%!
#15700
b00000000000000000000000000001001 '!
#16000
0%!
#16500
1'
b1100110011101 .
b000 >
0?
1%!
#16700
b00000000000000000000000000001010 '!
#17000
0%!
#17500
b00 )
b001101 -
b1011001101010 .
b001 >
1%!
#17700
b00000000000000000000000000001011 '!
#18000
0%!
#18500
0*
b001110 -
b1001100110111 .
b010 >
1%!
#18700
b00000000000000000000000000001100 '!
1(!
#19000
0%!
#19500
b0001 &
b001111 -
b1000000000100 .
b011 >
1%!
#19700
b00000000000000000000000000001101 '!
#20000
0%!
#20500
0'
b001 +
b000000 -
b0110011010001 .
b100 >
1%!
#20700
b00000000000000000000000000001110 '!
#21000
0%!
#21500
1'
b1100110011110 .
b000 >
1?
b110 C
b01100010 D
1%!
#21700
b00000000000000000000000000001111 '!
#22000
0%!
#22500
b010 +
b1011001101011 .
b001 >
1%!
#22700
b00000000000000000000000000010000 '!
0(!
#23000
0%!
#23500
b011 +
1,
b1001100111000 .
b010 >
1%!
#23700
b00000000000000000000000000010001 '!
#24000
0%!
#24500
b1000 &
b100 +
0,
b1000000000101 .
b011 >
1%!
#24700
b00000000000000000000000000010010 '!
#25000
0%!
#25500
0'
b101 +
b0110011010010 .
b100 >
1%!
#25700
b00000000000000000000000000010011 '!
#26000
0%!
#26500
1'
b1100110011111 .
b000 >
0?
1%!
#26700
b00000000000000000000000000010100 '!
1(!
#27000
0%!
#27500
b110 +
b1011001101100 .
b001 >
1%!
#27700
b00000000000000000000000000010101 '!
#28000
0%!
#28500
b111 +
b1001100111001 .
b010 >
1%!
#28700
b00000000000000000000000000010110 '!
#29000
0%!
#29500
b000 +
b1000000000110 .
b011 >
1%!
#29700
b00000000000000000000000000010111 '!
#30000
0%!
#30500
0'
b001 +
b0110011010011 .
b100 >
1%!
#30700
b00000000000000000000000000011000 '!
0(!
#31000
0%!
#31500
1'
b1100110100000 .
b000 >
1?
b101 C
b00110001 D
1%!
#31700
b00000000000000000000000000011001 '!
#32000
0%!
#32500
b010 +
b1011001101101 .
b001 >
1%!
#32700
b00000000000000000000000000011010 '!
#33000
0%!
#33500
b011 +
1,
b1001100111010 .
b010 >
1%!
#33700
b00000000000000000000000000011011 '!
#34000
0%!
#34500
b1001 &
b100 +
0,
b1000000000111 .
b011 >
1%!
#34700
b00000000000000000000000000011100 '!
1(!
#35000
0%!
#35500
0'
b101 +
b0110011010100 .
b100 >
1%!
#35700
b00000000000000000000000000011101 '!
#36000
0%!
#36500
1'
b1100110100001 .
b000 >
0?
1%!
#36700
b00000000000000000000000000011110 '!
#37000
0%!
#37500
b110 +
b1011001101110 .
b001 >
1%!
#37700
b00000000000000000000000000011111 '!
#38000
0%!
#38500
b111 +
b1001100111011 .
b010 >
1%!
#38700
b00000000000000000000000000100000 '!
0(!
#39000
0%!
#39500
b000 +
b1000000001000 .
b011 >
1%!
#39700
b00000000000000000000000000100001 '!
#40000
0%!
#40500
0'
b001 +
b0110011010101 .
b100 >
1%!
#40700
b00000000000000000000000000100010 '!
#41000
0%!
#41500
1'
b1100110100010 .
b000 >
1?
1@
b100 C
b00011000 D
1%!
#41700
b00000000000000000000000000100011 '!
#42000
0%!
#42500
b01 (
b010 +
b1011001101111 .
b001 >
1%!
#42700
b00000000000000000000000000100100 '!
1(!
#43000
0%!
#43500
b11 (
b011 +
1,
b1001100111100 .
b010 >
1%!
#43700
b00000000000000000000000000100101 '!
#44000
0%!
#44500
b1010 &
b01 )
b100 +
0,
b1000000001001 .
b011 >
1%!
#44700
b00000000000000000000000000100110 '!
#45000
0%!
#45500
0'
b10 )
b101 +
b0110011010110 .
b100 >
1%!
#45700
b00000000000000000000000000100111 '!
#46000
0%!
#46500
1'
b1100110100011 .
b000 >
0?
1%!
#46700
b00000000000000000000000000101000 '!
0(!
#47000
0%!
#47500
b11 )
b110 +
b1011001110000 .
b001 >
1%!
#47700
b00000000000000000000000000101001 '!
#48000
0%!
#48500
1*
b111 +
b1001100111101 .
b010 >
1%!
#48700
b00000000000000000000000000101010 '!
#49000
0%!
#49500
b000 +
b1000000001010 .
b011 >
1%!
#49700
b00000000000000000000000000101011 '!
#50000
0%!
#50500
0'
b001 +
b0110011010111 .
b100 >
1%!
#50700
b00000000000000000000000000101100 '!
1(!
#51000
0%!
#51500
1'
b1100110100100 .
b000 >
1?
0@
b011 C
b00001100 D
1%!
#51700
b00000000000000000000000000101101 '!
#52000
0%!
#52500
b10 (
b010 +
b1011001110001 .
b001 >
1%!
#52700
b00000000000000000000000000101110 '!
#53000
0%!
#53500
b00 (
b011 +
1,
b1001100111110 .
b010 >
1%!
#53700
b00000000000000000000000000101111 '!
#54000
0%!
#54500
b10000000 #
b1011 &
b10 )
b100 +
0,
b1000000001011 .
b011 >
1%!
#54700
b00000000000000000000000000110000 '!
0(!
#55000
0%!
#55500
0'
b01 )
b101 +
b0110011011000 .
b100 >
1%!
#55700
b00000000000000000000000000110001 '!
#56000
0%!
#56500
1'
b1100110100101 .
b000 >
0?
1%!
#56700
b00000000000000000000000000110010 '!
#57000
0%!
#57500
b00 )
b110 +
b1011001110010 .
b001 >
1%!
#57700
b00000000000000000000000000110011 '!
#58000
0%!
#58500
0*
b111 +
b1001100111111 .
b010 >
1%!
#58700
b00000000000000000000000000110100 '!
1(!
#59000
0%!
#59500
b000 +
b1000000001100 .
b011 >
1%!
#59700
b00000000000000000000000000110101 '!
#60000
0%!
#60500
0'
b001 +
b0110011011001 .
b100 >
1%!
#60700
b00000000000000000000000000110110 '!
#61000
0%!
#61500
1'
b1100110100110 .
b000 >
1?
b010 C
b00000110 D
1%!
#61700
b00000000000000000000000000110111 '!
#62000
0%!
#62500
b010 +
b1011001110011 .
b001 >
1%!
#62700
b00000000000000000000000000111000 '!
0(!
#63000
0%!
#63500
b011 +
1,
b1001101000000 .
b010 >
1%!
#63700
b00000000000000000000000000111001 '!
#64000
0%!
#64500
b01000000 #
b1100 &
b100 +
0,
b1000000001101 .
b011 >
1%!
#64700
b00000000000000000000000000111010 '!
#65000
0%!
#65500
0'
b101 +
b0110011011010 .
b100 >
1%!
#65700
b00000000000000000000000000111011 '!
#66000
0%!
#66500
1'
b1100110100111 .
b000 >
0?
1%!
#66700
b00000000000000000000000000111100 '!
1(!
#67000
0%!
#67500
b110 +
b1011001110100 .
b001 >
1%!
#67700
b00000000000000000000000000111101 '!
#68000
0%!
#68500
b111 +
b1001101000001 .
b010 >
1%!
#68700
b00000000000000000000000000111110 '!
#69000
0%!
#69500
b000 +
b1000000001110 .
b011 >
1%!
#69700
b00000000000000000000000000111111 '!
#70000
0%!
#70500
0'
b001 +
b0110011011011 .
b100 >
1%!
#70700
b00000000000000000000000001000000 '!
0(!
#71000
0%!
#71500
1'
b1100110101000 .
b000 >
1?
b001 C
b00000011 D
1%!
#71700
b00000000000000000000000001000001 '!
#72000
0%!
#72500
b010 +
b1011001110101 .
b001 >
1%!
#72700
b00000000000000000000000001000010 '!
#73000
0%!
#73500
b011 +
1,
b1001101000010 .
b010 >
1%!
#73700
b00000000000000000000000001000011 '!
#74000
0%!
#74500
b00100000 #
b1101 &
b100 +
0,
b1000000001111 .
b011 >
1%!
#74700
b00000000000000000000000001000100 '!
1(!
#75000
0%!
#75500
0'
b101 +
b0110011011100 .
b100 >
1%!
#75700
b00000000000000000000000001000101 '!
#76000
0%!
#76500
1'
b1100110101001 .
b000 >
0?
1%!
#76700
b00000000000000000000000001000110 '!
#77000
0%!
#77500
b110 +
b1011001110110 .
b001 >
1%!
#77700
b00000000000000000000000001000111 '!
#78000
0%!
#78500
b111 +
b1001101000011 .
b010 >
1%!
#78700
b00000000000000000000000001001000 '!
0(!
#79000
0%!
#79500
b000 +
b1000000010000 .
b011 >
1%!
#79700
b00000000000000000000000001001001 '!
#80000
0%!
#80500
0'
b001 +
b0110011011101 .
b100 >
1%!
#80700
b00000000000000000000000001001010 '!
#81000
0%!
#81500
1'
b1100110101010 .
b000 >
1?
1@
b000 C
b00000001 D
1%!
#81700
b00000000000000000000000001001011 '!
#82000
0%!
#82500
b01 (
b010 +
b1011001110111 .
b001 >
1%!
#82700
b00000000000000000000000001001100 '!
1(!
#83000
0%!
#83500
b11 (
b011 +
1,
b1001101000100 .
b010 >
1%!
#83700
b00000000000000000000000001001101 '!
#84000
0%!
#84500
b00010000 #
b1110 &
b01 )
b100 +
0,
b1000000010001 .
b011 >
1%!
#84700
b00000000000000000000000001001110 '!
#85000
0%!
#85500
0'
b10 )
b101 +
b0110011011110 .
b100 >
1%!
#85700
b00000000000000000000000001001111 '!
#86000
0%!
#86500
1'
b1100110101011 .
b000 >
0?
1%!
#86700
b00000000000000000000000001010000 '!
0(!
#87000
0%!
#87500
b11 )
b110 +
b1011001111000 .
b001 >
1%!
#87700
b00000000000000000000000001010001 '!
#88000
0%!
#88500
1*
b111 +
b1001101000101 .
b010 >
1%!
#88700
b00000000000000000000000001010010 '!
#89000
0%!
#89500
b000 +
b1000000010010 .
b011 >
1%!
#89700
b00000000000000000000000001010011 '!
#90000
0%!
#90500
0'
b001 +
b0110011011111 .
b100 >
1%!
#90700
b00000000000000000000000001010100 '!
1(!
#91000
0%!
#91500
1'
b1100110101100 .
b000 >
1?
b10 B
b111 C
b00000000 D
1%!
#91700
b00000000000000000000000001010101 '!
#92000
0%!
#92500
b010 +
b1011001111001 .
b001 >
1%!
#92700
b00000000000000000000000001010110 '!
#93000
0%!
#93500
b011 +
1,
b1001101000110 .
b010 >
1%!
#93700
b00000000000000000000000001010111 '!
#94000
0%!
#94500
b10001000 #
b1111 &
b100 +
0,
b1000000010011 .
b011 >
1%!
#94700
b00000000000000000000000001011000 '!
0(!
#95000
0%!
#95500
0'
b101 +
b0110011100000 .
b100 >
1%!
#95700
b00000000000000000000000001011001 '!
#96000
0%!
#96500
1'
b1100110101101 .
b000 >
0?
1%!
#96700
b00000000000000000000000001011010 '!
#97000
0%!
#97500
b110 +
b1011001111010 .
b001 >
1%!
#97700
b00000000000000000000000001011011 '!
#98000
0%!
#98500
b111 +
b1001101000111 .
b010 >
1%!
#98700
b00000000000000000000000001011100 '!
1(!
#99000
0%!
#99500
b000 +
b1000000010100 .
b011 >
1%!
#99700
b00000000000000000000000001011101 '!
#100000
0%!
#100500
0'
b001 +
b0110011100001 .
b100 >
1%!
#100700
b00000000000000000000000001011110 '!
#101000
0%!
#101500
1'
b1100110101110 .
b000 >
1?
b00 B
1%!
#101700
b00000000000000000000000001011111 '!
#102000
0%!
#102500
b010 +
b1011001111011 .
b001 >
1%!
#102700
b00000000000000000000000001100000 '!
0(!
#103000
0%!
#103500
b011 +
1,
b1001101001000 .
b010 >
1%!
#103700
b00000000000000000000000001100001 '!
#104000
0%!
#104500
b11000100 #
b0010 &
b100 +
0,
b1000000010101 .
b011 >
1%!
#104700
b00000000000000000000000001100010 '!
#105000
0%!
#105500
0'
b101 +
b0110011100010 .
b100 >
1%!
#105700
b00000000000000000000000001100011 '!
#106000
0%!
#106500
1'
b1100110101111 .
b000 >
0?
1%!
#106700
b00000000000000000000000001100100 '!
1(!
#107000
0%!
#107500
b110 +
b1011001111100 .
b001 >
1%!
#107700
b00000000000000000000000001100101 '!
#108000
0%!
#108500
b111 +
b1001101001001 .
b010 >
1%!
#108700
b00000000000000000000000001100110 '!
#109000
0%!
#109500
b000 +
b1000000010110 .
b011 >
1%!
#109700
b00000000000000000000000001100111 '!
#110000
0%!
#110500
0'
b001 +
b0110011100011 .
b100 >
1%!
#110700
b00000000000000000000000001101000 '!
0(!
#111000
0%!
#111500
1'
b1100110110000 .
b000 >
1?
0@
b00000000000000000000000000000010 A
b01 B
b10011100 D
b00001011000111100101110110011100 E
1%!
#111700
b00000000000000000000000001101001 '!
#112000
0%!
#112500
b10 (
b010 +
b1011001111101 .
b001 >
1%!
#112700
b00000000000000000000000001101010 '!
#113000
0%!
#113500
b00 (
b011 +
1,
b1001101001010 .
b010 >
1%!
#113700
b00000000000000000000000001101011 '!
#114000
0%!
#114500
b0000 &
b10 )
b100 +
0,
b1000000010111 .
b011 >
1T
1%!
1)!
#114700
b00000000000000000000000001101100 '!
1(!
#115000
0%!
#115500
0'
b01 )
b000 +
b000001 -
b0110011100100 .
b0001 2
b001 3
b100 >
0T
b0001 _
b11000100 {
1%!
0)!
#115700
b00000000000000000000000001101101 '!
#116000
0%!
#116500
1'
b1100110110001 .
b000 >
0?
b0001 ^
1%!
#116700
b00000000000000000000000001101110 '!
#117000
0%!
#117500
b00 )
b000010 -
b1011001111110 .
b001 >
1%!
#117700
b00000000000000000000000001101111 '!
#118000
0%!
#118500
0*
b000011 -
b1001101001011 .
b010 >
1%!
#118700
b00000000000000000000000001110000 '!
0(!
#119000
0%!
#119500
b0001 &
b000100 -
b1000000011000 .
b011 >
1%!
#119700
b00000000000000000000000001110001 '!
#120000
0%!
#120500
0'
b001 +
b000000 -
b0110011100101 .
b100 >
1%!
#120700
b00000000000000000000000001110010 '!
#121000
0%!
